<svg xmlns="http://www.w3.org/2000/svg" width="125px" height="125px" viewBox="0 0 125 125">
<path fill="#FFFFFF" d="M109.038,15.924c-14.57-8.538-25.336-3.62-33.874,5.754c-8.538,9.373-9.651,19.396-9.651,21.159
	c0,1.764-0.302,6.079-3.806,6.032l-0.151-0.007c-1.488-0.09-3.592-1.072-4.249-5.137c-1.066-6.597-0.742-10.208,0.65-14.756
	c1.392-4.547,5.754-7.889,3.991-16.334S52.296,0.2,48.027,0.015s-23.48,1.206-32.018,15.777c-8.539,14.57-3.62,25.335,5.753,33.873
	c9.374,8.538,19.396,9.652,21.16,9.652c1.764,0,6.102,0.464,6.056,3.968l0.003,0.127c0.066,1.438-0.433,3.701-5.084,4.339
	c-6.621,0.908-10.208,0.742-14.756-0.649c-4.548-1.393-7.889-5.754-16.334-3.991C4.362,64.874,0.372,72.763,0.186,77.031
	C0,81.301,1.392,100.511,15.962,109.049c14.571,8.538,25.336,3.62,33.874-5.754c8.538-9.373,9.652-19.396,9.652-21.159
	s0.291-6.047,3.794-6l0.265,0.007c1.469,0.17,3.409,1.256,4.035,5.132c1.066,6.597,0.742,10.208-0.649,14.756
	c-1.393,4.547-5.754,7.888-3.99,16.333c1.763,8.445,9.651,12.437,13.92,12.622c4.27,0.186,23.48-1.207,32.019-15.777
	s3.619-25.336-5.754-33.874c-9.374-8.538-19.396-9.651-21.16-9.651c-1.763,0-6.078-0.302-6.032-3.805l0.012-0.147
	c-0.012-1.492,0.849-3.812,5.157-4.509c6.597-1.066,10.209-0.742,14.756,0.649c4.548,1.393,7.889,5.755,16.334,3.991
	s12.436-9.652,12.621-13.921C125,43.672,123.608,24.462,109.038,15.924z M62.991,69.522c-3.769,0-6.825-3.056-6.825-6.825
	s3.056-6.825,6.825-6.825c3.77,0,6.826,3.056,6.826,6.825S66.761,69.522,62.991,69.522z"/>
</svg>