<svg xmlns="http://www.w3.org/2000/svg" width="125px" height="125px" viewBox="0 0 125 125">
<g>
	<path fill="#90A4AE" d="M293.166,1551.486c-70.818-41.5-123.144-17.592-164.642,27.966
		c-41.499,45.559-46.912,94.274-46.912,102.845s-1.466,29.546-18.494,29.32l-0.734-0.034c-7.235-0.438-17.457-5.213-20.652-24.966
		c-5.185-32.064-3.608-49.618,3.158-71.721c6.766-22.103,27.967-38.342,19.396-79.389c-8.571-41.049-46.913-60.444-67.662-61.347
		c-20.75-0.901-114.122,5.864-155.621,76.683c-41.499,70.818-17.592,123.144,27.967,164.643
		c45.559,41.498,94.274,46.911,102.845,46.911s29.658,2.257,29.433,19.284l0.016,0.62c0.322,6.992-2.103,17.987-24.712,21.089
		c-32.179,4.413-49.618,3.607-71.721-3.158s-38.341-27.967-79.389-19.396s-60.444,46.912-61.346,67.661
		c-0.902,20.749,5.864,114.122,76.683,155.62c70.819,41.499,123.143,17.592,164.642-27.966
		c41.499-45.559,46.912-94.274,46.912-102.845s1.411-29.389,18.438-29.162l1.286,0.031c7.142,0.829,16.569,6.105,19.615,24.942
		c5.185,32.063,3.608,49.618-3.157,71.721s-27.967,38.341-19.396,79.389s46.912,60.444,67.661,61.346
		c20.749,0.902,114.122-5.864,155.621-76.683c41.498-70.818,17.592-123.143-27.967-164.642s-94.274-46.911-102.845-46.911
		s-29.545-1.467-29.32-18.494l0.058-0.717c-0.058-7.252,4.122-18.527,25.065-21.914c32.064-5.185,49.619-3.608,71.721,3.158
		c22.103,6.766,38.342,27.967,79.389,19.396c41.049-8.57,60.444-46.912,61.347-67.661
		C370.75,1686.356,363.984,1592.984,293.166,1551.486z M69.361,1812.001c-18.322,0-33.175-14.853-33.175-33.174
		s14.853-33.175,33.175-33.175c18.321,0,33.174,14.854,33.174,33.175S87.683,1812.001,69.361,1812.001z"/>
	<path opacity="0.6" fill="#878787" d="M379.658,1455.927c-174.922-174.922-458.527-174.922-633.45,0
		c-174.922,174.922-174.922,458.527,0,633.449c174.922,174.922,458.528,174.922,633.45,0S554.58,1630.849,379.658,1455.927z
		 M339.078,1496.507c144.645,144.646,152.098,374.522,22.371,527.96l-550.331-550.332
		C-35.445,1344.409,194.433,1351.862,339.078,1496.507z M-213.211,2048.796c-144.645-144.646-152.098-374.522-22.372-527.96
		l550.331,550.332C161.312,2200.894-68.566,2193.44-213.211,2048.796z"/>
</g>
<g>
	<path fill="#90A4AE" d="M94.633,31.631c-9.894-5.786-17.198-2.447-22.984,3.911c-5.786,6.358-6.536,13.144-6.536,14.34
		c0,1.197-0.214,4.125-2.589,4.108l-0.098-0.019c-1.009-0.053-2.438-0.714-2.884-3.482c-0.724-4.464-0.5-6.911,0.446-10
		c0.938-3.09,3.894-5.358,2.705-11.072c-1.196-5.732-6.544-8.447-9.447-8.572c-2.893-0.125-15.92,0.821-21.707,10.697
		c-5.795,9.894-2.456,17.198,3.902,22.983c6.357,5.786,13.153,6.536,14.349,6.536c1.197,0,4.134,0.322,4.107,2.698v0.088
		c0.045,0.965-0.294,2.5-3.447,2.947c-4.491,0.607-6.929,0.5-10.009-0.447c-3.081-0.945-5.349-3.911-11.082-2.713
		c-5.723,1.195-8.428,6.553-8.553,9.447c-0.125,2.893,0.821,15.93,10.696,21.715c9.885,5.787,17.18,2.447,22.975-3.91
		c5.786-6.357,6.545-13.145,6.545-14.342c0-1.195,0.197-4.107,2.572-4.07h0.179c1,0.125,2.304,0.857,2.732,3.482
		c0.732,4.482,0.5,6.928-0.429,10c-0.946,3.09-3.911,5.357-2.715,11.09c1.196,5.715,6.555,8.43,9.447,8.555
		c2.894,0.125,15.912-0.822,21.716-10.697c5.786-9.875,2.446-17.18-3.911-22.967c-6.357-5.803-13.144-6.553-14.34-6.553
		s-4.126-0.197-4.107-2.572l0.018-0.107c-0.018-1.019,0.571-2.59,3.5-3.054c4.465-0.732,6.911-0.519,10.001,0.429
		c3.09,0.946,5.357,3.91,11.072,2.714c5.732-1.196,8.447-6.554,8.572-9.447C105.455,50.454,104.509,37.435,94.633,31.631z
		 M63.398,67.992c-2.554,0-4.625-2.072-4.625-4.627c0-2.571,2.072-4.643,4.625-4.643s4.625,2.071,4.625,4.643
		C68.023,65.92,65.952,67.992,63.398,67.992z"/>
	<path opacity="0.6" fill="#878787" d="M106.688,18.31c-24.396-24.413-63.969-24.413-88.381,0
		c-24.403,24.394-24.403,63.968,0,88.382c24.412,24.412,63.986,24.412,88.381,0C131.1,82.277,131.1,42.704,106.688,18.31z
		 M101.026,23.971c20.18,20.179,21.233,52.254,3.125,73.666L27.369,20.845C48.772,2.755,80.846,3.791,101.026,23.971z
		 M23.967,101.029C3.787,80.85,2.751,48.775,20.851,27.363l76.782,76.791C76.221,122.246,44.156,121.209,23.967,101.029z"/>
</g>
</svg>