{
	"common": {
		"brand": "Salus",
		"countries": {
			"cz": "Tjeckien",
			"de": "Tyskland",
			"dk": "Danmark",
			"es": "Spanien",
			"fr": "Frankrike",
			"hu": "Ungern",
			"it": "Italien",
			"nl": "Nederländerna",
			"no": "Norge",
			"pl": "Polen",
			"ro": "Rumänien",
			"ru": "Ryssland",
			"sk": "Slovakien",
			"sl": "Slovenien",
			"sv": "Sverige",
			"uk": "Storbritannien",
			"us": "USA"
		},
		"daysOfWeek": {
			"abbreviations": {
				"friday": "Fre",
				"monday": "Mån",
				"saturday": "Lör",
				"sunday": "Sön",
				"thursday": "Tors",
				"tuesday": "Tis",
				"wednesday": "Ons"
			}
		},
		"footer": {
			"copyrightText": "Salus Controls, Inc. Med ensamrätt.",
			"privacyPolicy": "Sekretesspolicy",
			"termsAndConditions": "Användarvillkor"
		},
		"header": {
			"about": "Om denna app",
			"allEquipment": "All utrustning",
			"contactSupport": "Kontakta support",
			"dataCollection": "Datainsamling",
			"equipment": "Utrustning",
			"faq": "FAQ",
			"gateways": "Gateways",
			"help": "Hjälp",
			"home": "Hem",
			"logout": "Utloggning",
			"messageCenter": "Meddelandecenter",
			"myStatus": "Min status",
			"oneTouch": "OneTouch",
			"profile": "Profil",
			"settings": "Inställningar",
			"setupEquipment": "Konfigurera utrustning"
		},
		"labels": {
			"accept": "Acceptera",
			"apply": "Använd",
			"back": "Tillbaka",
			"cancel": "Avbryt",
			"close": "Stäng",
			"create": "Skapa",
			"daily": "Daglig",
			"delete": "Radera",
			"edit": "Redigera",
			"email": "E-post",
			"enable": "Aktivera",
			"finished": "Avslutad",
			"monthly": "Månatlig",
			"next": "Nästa",
			"no": "Nej",
			"off": "av",
			"ok": "OK",
			"on": "på",
			"save": "Spara",
			"saved": "Sparad",
			"select": "Välj ett objekt",
			"set": "Ställ in",
			"skip": "Hoppa över",
			"turnOff": "Stäng Av",
			"turnOn": "Sätt På",
			"weekly": "Veckovis",
			"yearly": "Årligen",
			"yes": "Ja"
		},
		"languages": {
			"cs": "Tjeckiska",
			"da": "Danska",
			"de": "Tyska",
			"en-uk": "Engelska (UK)",
			"en-us": "Engelska (USA)",
			"es": "Spanska",
			"fr": "Franska",
			"hu": "Ungerska",
			"it": "Italienska",
			"nl": "Holländska",
			"no": "Norska",
			"pl": "Polska",
			"ro": "Rumänska",
			"ru": "Ryska",
			"sk": "Slovakiska",
			"sl": "Slovenska",
			"sv": "Svenska"
		},
		"lessDetails": "Mindre information",
		"loadingMessage": "Salus laddas...",
		"months": {
			"april": "April",
			"august": "Augusti",
			"december": "December",
			"february": "Februari",
			"january": "Januari",
			"july": "Juli",
			"june": "Juni",
			"march": "Mars",
			"may": "Maj",
			"november": "November",
			"october": "Oktober",
			"september": "September"
		},
		"moreDetails": "Mer information",
		"symbols": {
			"celsius": "&#8451;",
			"fahrenheit": "&#8457;"
		},
		"validation": {
			"ayla": {
				"cantbeblank": "Det här fältet får inte vara tomt.",
				"confirmaccountbeforecontinue": "Bekräfta kontot innan du fortsätter",
				"hasalreadybeentaken": "Den här e-postadressen används redan",
				"isinvalid": "Det här fältet är ogiltigt",
				"tokeninvalid": "Det här tecknet är ogiltigt",
				"useridisalreadygratnedforthatresource": "Den här e-postadressen används redan"
			},
			"default": {
				"requiredField": "Det här fältet är obligatoriskt"
			},
			"email": {
				"alreadyConfirmed": "Den här e-postadressen har redan bekräftats.",
				"notFound": "Inget känt konto för den e-postadressen",
				"notMatching": "De angivna e-postadresserna matchade inte",
				"notValid": "Den angivna e-postadressen är inte en giltig e-postadress"
			},
			"integerRangeFormatted": "Heltal mellan __min__ och __max__",
			"ipAddress": "Den här adressen är ogiltig. Använd formatet x.x.x.x",
			"mobile": {
				"notValid": "Det här är inte ett giltigt telefonnummer.",
				"selectCountry": "Välj ett land först."
			},
			"numberRangeFormatted": "Nummer mellan __min__ och __max__",
			"passwords": {
				"notMatching": "Lösenorden matchar inte",
				"tooLong": "Lösenord får inte ha fler än fjorton tecken",
				"tooShort": "Lösenord måste ha minst sex tecken",
				"tooSimple": "Det här lösenordet är för enkelt"
			},
			"postcode": {
				"notValid": "Ogiltigt postnummer"
			},
			"wordsOnly": "Det här fältet stödjer bara ord (inga siffror).",
			"zip": {
				"notValid": "Det här postnumret är ogiltigt. Ska vara ett nummer med upp till 9 siffror."
			}
		}
	},
	"dashboard": {
		"addGateway": "Lägg till ny gateway",
		"header": {
			"addAPhoto": "Lägg till ett foto",
			"cancelScan": "Avbryt avsökning?",
			"choosePhoto": "Välj foto från bibliotek",
			"scanComplete": "Avsökning slutförd",
			"scanMyHome": "Sök av mitt hem",
			"scanned": "avsökt",
			"scanning": "Söker av...",
			"takeAPhoto": "Ta ett foto"
		},
		"welcomeTile": {
			"description": "Med den här instrumentpanelen får du en översikt över din utrustning. Fäst utrustning, en OneTouch, och mer för enkel hantering av hemmet från en enda skärm.",
			"title": "Välkommen till instrumentpanelen!"
		}
	},
	"email": {
		"dynamic_body": {
			"title": "Hej [[user_name]]"
		},
		"footer": {
			"legalText": "",
			"salusCompanyAddress": "850 Main St, Redwood City, CA 94063",
			"salusCompanyName": "Salus Controls, Inc",
			"salusCopyRightHTML": "&copy; Salus Inc. 2016",
			"salusWebSiteText": "www.salusinc.com",
			"salusWebSiteUrl": "http://www.salusinc.com"
		},
		"guest_signup_confirmation": {
			"buttonText": "Bekräfta konto",
			"contentBottomHTML": "<p>Välkommen till Salus Connected Solutions!</p>",
			"contentTopHTML": "<p>Du har blivit inbjuden till [primary user]s Salus-konto. Bekräfta ditt gästkonto nu. Du har 30 dagar på dig att bekräfta fr.o.m. idag.</p>",
			"emailSubject": "Bekräfta din gästbehörighet för  Salus",
			"title": "Välkommen [[user_name]]!"
		},
		"password_reset": {
			"buttonText": "Återställ lösenord",
			"contentBottomHTML": "<p>Om du inte begärde den här återställningen eller har ångrat dig, kan du strunta i det här meddelandet. Ingen åtgärd krävs.</p><p>Har du frågor eller behöver hjälp?  På våra supportsidor hittar du användbar information.</p><p>Ditt serviceteam hos Salus Connected Solution</p>",
			"contentTopHTML": "<p>Vi har fått din begäran om lösenordsåterställning. Återställ ditt lösenord nu. Din återställningsbegäran upphör att gälla om 6 timmar och den här länken kan bara användas en gång.</p>",
			"emailSubject": "Din återställningsbegäran",
			"title": "Hej [[user_name]]"
		},
		"resource_share": {
			"emailBodyHTML": "[[share_owner_user_name]] har gett dig [[share_operation]] behörighet till [[share_resource_name]] med ID: [[share_resource_id]]",
			"emailSubject": "[[share_owner_user_name]] har gett dig behörighet att [[share_operation]] [[share_resource_name]] med ID: [[share_resource_id]]",
			"title": "Hej [[share_target_user_name]]"
		},
		"signup_confirmation": {
			"buttonText": "Bekräfta konto",
			"contentBottomHTML": "",
			"contentTopHTML": "<p>Tack för att du skapade din profil. Bekräfta ditt konto nu. Du har 30 dagar på dig att bekräfta fr.o.m. idag.</p><p>När ditt konto har bekräftats hjälper vi dig med resten av konfigurationsprocessen.</p><p>Välkommen till Salus Connected Solutions!</p>",
			"emailSubject": "Bekräfta ditt Salus-konto",
			"title": "Välkommen [[user_name]]!"
		},
		"trigger_app": {
			"title": "Hej [[user_name]]"
		}
	},
	"equipment": {
		"common": {
			"firmVer": "Version på inbyggd programvara:",
			"mac": "Mac-adress:",
			"model": "Modell:",
			"serialNum": "Serienummer:"
		},
		"delete": {
			"equipmentDontWorry": "Oroa dig inte, du kan alltid lägga till det igen senare.",
			"gatewayWarning": "Eventuella tjänster associerade med din gateway kommer dock också att raderas.",
			"removeEquipment": "Ta bort utrustning",
			"removeEquipmentFormatted": "Ta bort __modelTypeName__",
			"removeSharedEquipmentFormatted": "Ta bort delad __modelTypeName__",
			"sharesDontWorry": "Oroa dig inte, du kan alltid lägga till dem igen senare.",
			"warning": "Du håller på att radera __product_name__"
		},
		"dialog": {
			"body": "Välj bland följande alternativ:",
			"changeAllDevicesFormatted": "Byt alla __modelTypeName__ enheter",
			"changeThisDevice": "Byt bara den här",
			"checkboxDoNotShowAgain": "Visa inte det här igen",
			"titleFormatted": "Du håller på att ändra inställningarna för en enda __modelTypeName__"
		},
		"error": {
			"deviceOffline": "The device is offline",
			"eMeterGraphError": "There was a problem loading the graph, click here to reload",
			"syncError": "Properties failed to sync for __device__",
			"tryAgain": "Please ensure operational status of your device and try again later."
		},
		"gateway": {
			"address": {
				"addressLabel": "Adress",
				"cityLabel": "Stad",
				"header": "Adress där din utrustning är installerad",
				"postcodeLabel": "Postcode",
				"stateLabel": "Delstat",
				"zipLabel": "Postnummer"
			},
			"deviceInputLabel": "Gateway namn",
			"deviceSerialNumber": "Serienummer för gateway",
			"error": {
				"invalidDeviceSerialNumber": "Gateway hittades inte. Pröva knappen på din gateway och klicka på knappen Uppdatera sökning igen.",
				"registrationFailedNoNodes": "Gateway-konfigurationen misslyckades. Vänta i två minuter och pröva igen.",
				"registrationFailedUnknown": "Gateway Registrering Misslyckades. Prova igen.",
				"registrationTimeout": "Registreringstiden har upphört. Tryck på knappen på din gateway igen."
			},
			"header": "Aktivera din gateway",
			"instruction": "When your gateway LED light is solid blue, click the \"Search for Gateway\" button below. The gateway serial number should populate automatically for you.",
			"searchButton": "Sök efter Gateway",
			"subheader": "Se till att din gateway är kopplad till modemet med en Ethernet-kabel.",
			"submitButton": "Aktivera min gateway"
		},
		"history": {
			"headers": {
				"date": "Datum",
				"event": "Händelse",
				"time": "Tid",
				"user": "Användare"
			},
			"title": "Historik"
		},
		"information": {
			"headers": {
				"connection": "Ansluten",
				"dsn": "Serienummer",
				"firmware": "Firmware Version",
				"mac": "MAC-adress",
				"oem": "Modell",
				"version": "Programvaruversion"
			},
			"title": "Information"
		},
		"it600Warnings": {
			"Error01": "Error01: Problem med termostatparat TRV-reglage",
			"Error02": "Error02: Termostatgolvsensor överhettad",
			"Error03": "Error03: Termostatgolvsensor öppen",
			"Error04": "Error04: Kortslutning i termostatgolvsensor",
			"Error05": "Error05: Termostat förlorade koppling till koordinator",
			"Error06": "Error06: Termostat förlorade koppling till ledningscentral",
			"Error07": "Error07: Termostat förlorade koppling till TRV",
			"Error08": "Error08: Termostat förlorade koppling till mottagare 1",
			"Error09": "Error09: Termostat förlorade koppling till mottagare 2",
			"Error21": "Error21: Termostatparad TRV förlorade koppling till koordinator",
			"Error22": "Error22: Termostatparat TRV-batteri snart urladdat",
			"Error23": "Error23: Termostat tar emot meddelande från oparad TRV eller TRV tar emot meddelande från oparad termostat",
			"Error24": "Error24: Termostat avvisad av ledningscentral",
			"Error25": "Error25: Termostat förlorade koppling till överordnad termostat",
			"Error30": "Error30: Växelfel i termostatparad TRV",
			"Error31": "Error31: Anpassningsproblem för termostatparad TRV ",
			"Error32": "Error32: Termostatbatteri snart urladdat",
			"modal": {
				"title": "IT600 Aktuella fel"
			}
		},
		"myEquipment": {
			"categories": {
				"noEquipment": "Du har ingen utrustning av denna typ.",
				"schedules": {
					"scheduleButton": "Skapa schema",
					"scheduleText": "Skapa ett schema nu",
					"smartPlugs": "Scheman kör automatiskt dina mellanstickkontakter från förinställningarna. Använd våra rekommenderade standardscheman eller ställ in dina egna.",
					"thermostats": "Scheman kör automatiskt din termostats värme eller kyla från förinställningarna. Använd våra rekommenderade standardscheman eller ställ in dina egna.",
					"waterHeaters": "Scheman kör automatiskt dina varmvattenberedare från förinställningarna. Använd våra rekommenderade standardscheman eller ställ in dina egna."
				},
				"thermostats": {
					"createTsc": "Lägg till ny centraltermostat",
					"individualControls": "Individuella kontroller",
					"singleControls": "Centralreglage",
					"thermostatsIn": "Termostater i"
				},
				"title": "Kategorier",
				"types": {
					"carbonMonoxideDetectors": "Kolmonoxiddetektorer",
					"doorMonitors": "Dörrvakt",
					"energyMeters": "Energimätare",
					"gateways": "Gateways",
					"smartPlugs": "Mellanstickkontakter",
					"smokeDetectors": "Rökdetektorer",
					"thermostats": "Termostater",
					"trvs": "Termostatiska radiatorventiler",
					"waterHeaters": "Varmvattenberedare",
					"windowMonitors": "Fönstervakt",
					"wirelessUncontrollableDevices": "Trådlösa enheter som inte kan kontrolleras"
				}
			},
			"groups": {
				"addNewEquipment": "Lägg till ny utrustning",
				"addNewGroup": "Lägg till ny grupp",
				"groupEquipment": "Gruppera utrustning",
				"success": "Klar!",
				"successMessage": "Det centrala termostatreglaget har skapats.",
				"title": "Grupper",
				"ungrouped": "Ej grupperad utrustning"
			},
			"newGroup": {
				"createError": "Det uppstod ett problem med att skapa din grupp. Pröva igen",
				"delete": {
					"linkText": "Radera grupp",
					"modalLabel": "Du håller på att radera gruppen",
					"warning": "Oroa dig inte, enheterna kommer att stanna på ditt konto och du kan alltid skapa gruppen igen."
				},
				"deviceError": "Grupper måste ha minst en enhet",
				"empty": "Du har tyvärr inga enheter att visa!",
				"nameError": "Fyll i ett giltigt gruppnamn",
				"newGroupText": "Namn på utrustningsgrupp",
				"newGroupTitle": "Ge din grupp ett namn",
				"pageTitle": "Gruppera utrustning",
				"selectEquipmentTitle": "Välj den utrustning som du vill ha i gruppen",
				"updateError": "Ett problem uppstod med att uppdatera gruppen. Pröva igen"
			},
			"subHeader": "Organisera din utrustning som du vill - efter kategori, plats eller vad som passar för dig",
			"title": "Min utrustning"
		},
		"names": {
			"carbonMonoxideDetector": "CO-detektor",
			"coordinatorDevice": "Koordinatorenhet",
			"doorMonitor": "Dörrvakt",
			"energyMeter": "Energimätare",
			"gateway": "Gateway",
			"gatewayNode": "Gatewaynod",
			"generic": "Utrustning",
			"iT600BoilerReceiver": "Pannmottagare",
			"iT600Thermostat": "IT600 Termostat",
			"iT600Trv": "TRV",
			"iT600WiringCenter": "Ledningscentral",
			"miniSmartPlug": "Mellanstickkontakter",
			"smartPlug": "Mellanstickkontakt",
			"smokeDetector": "Rökdetektor",
			"thermostat": "Termostat",
			"waterHeater": "Varmvattenberedare",
			"windowMonitor": "Fönstervakt"
		},
		"oneTouch": {
			"automations": {
				"addNew": "Lägg till en ny OneTouch",
				"added": "OneTouch adderad",
				"title": "OneTouch"
			},
			"create": {
				"criteriaSection": "Fastställ reglerna",
				"defaultRuleName": "Ny OneTouch-regel __ruleNum__",
				"include": "Inkludera denna OneTouch i en status?",
				"missingCriteriaError": "Välj åtminstone en handling",
				"nameSection": "Namnge denna OneTouch",
				"nameTextbox": "T.ex. verandalampor",
				"pin": {
					"pinText": "Fäst",
					"subtitle": "Vill du fästa denna OneTouch på instrumentpanelen?",
					"unpinText": "Fäst inte"
				},
				"subtitle": "",
				"title": "Skapa en ny OneTouch"
			},
			"criteria": {
				"andWhen": "och när",
				"buttonPress": "Knappen Kör nu är nedtryckt",
				"dayOfWeek": {
					"everyday": "Varje dag",
					"prefix": "Dag i veckan är __val__",
					"weekdays": "Vardagar",
					"weekends": "Helger"
				},
				"doThis": "gör detta",
				"orWhen": "eller när",
				"propVal": {
					"doorWindow": {
						"closed": "stängt",
						"open": "öppet"
					},
					"generic": "Ställ in __device_name__ på __val__",
					"is": "är __val__",
					"isBetween": "är mellan __lower_val__ och __upper_val__",
					"isGreaterThan": "är större än __val__",
					"isLessThan": "är mindre än __val__",
					"sensor": {
						"alerting": "Larmar"
					},
					"smartPlug": {
						"action": "Ställ in __device_name__ på __val__ ",
						"off": "AV",
						"on": "PÅ"
					},
					"thermostat": {
						"action": "Ställ in__device_name__ på __val__",
						"auto": "Autoläge",
						"cooling": "Kylläge",
						"decreaseBy": "sänk med __val__ grader",
						"degrees": "grader",
						"fanAuto": "Fläkt Auto",
						"fanOn": "Fan På",
						"heating": "Värmeläge",
						"increaseBy": "öka med __val__ grader",
						"off": "Av"
					},
					"waterHeater": {
						"action": "Ställ in __device_name__ på __val__",
						"boost": "öka",
						"continuous": "kontinuerlig",
						"off": "av",
						"schedule": "schemalagd"
					}
				},
				"sendAlert": {
					"email": {
						"prefix": "Skicka ett e-postmeddelande till __val__",
						"sendEmail": "Skicka ett e-postmeddelande"
					},
					"sms": {
						"prefix": "Skicka SMS till __val__",
						"sendSMS": "Skicka SMS"
					}
				},
				"sorry": "ledsen",
				"thenDoThis": "gör då detta",
				"thenDoThisLater": "gör då detta senare",
				"timeOfDay": {
					"prefix": "Tid på dagen __val__",
					"suffix": "till __val__"
				},
				"timer": {
					"baseTime": "__property_actions__ i __time_string__",
					"combined": "__hour_string__ och __min_string__",
					"hour": {
						"hour": "__time__ timme",
						"hours": "__time__ timmar"
					},
					"min": {
						"minute": "__time__ minut",
						"minutes": "__time__ minuter"
					},
					"now": "__property_actions__ nu"
				},
				"unsupported": "Ditt regelkriterium stöds inte för närvarande",
				"when": "när"
			},
			"details": {
				"addToDash": "Lägg till på instrumentpanelen:",
				"delete": {
					"modalText": "One Touch kommer inte längre att köras och kommer att tas bort från alla dina Min status.",
					"oneTouch": "Du är på väg att ta bort __one_touch__"
				},
				"includedIn": "Inkluderad i:",
				"runNow": "Kör nu"
			},
			"edit": {
				"title": "Redigera OneTouch"
			},
			"emails": {
				"subjectFormatted": "OneTouch-regel __ruleName__ triggades",
				"usernameFormatted": "__firstname__ __lastname__"
			},
			"menus": {
				"doThis": {
					"header": "GÖR DETTA",
					"notifyMe": {
						"contactMenu": {
							"addNew": "Lägg till ny",
							"addNewContact": "Lägg till ny kontakt",
							"countryCode": "Land",
							"email": "E-postadress",
							"emailConfirm": "Bekräfta e-postadress",
							"emailOptional": "E-postadress (valfri)",
							"mobilePhone": "Mobilnummer",
							"mobilePhoneOptional": "Mobilnummer (valfritt)",
							"name": "Kontaktens namn",
							"select": "Hur skulle du och dina gäster vilja ta emot varningar?"
						},
						"email": "Skicka e-postmeddelande",
						"emailHeader": "E-post",
						"sms": "Skicka SMS",
						"smsHeader": "SMS"
					},
					"propertyChange": {
						"changeFanMode": "Ändra fläktläge",
						"changeMode": "Ändra läge",
						"changeSetTemp": "Ändra inställd temperatur",
						"exactTemp": "Exakt temperatur",
						"fanAuto": "Auto",
						"fanOn": "Fläkt på",
						"increaseDecrease": "Öka eller sänk med",
						"smartPlugOff": "Slå AV mellanstickkontakt",
						"smartPlugOn": "Slå PÅ mellanstickkontakt",
						"waterHeater": {
							"boost": "Ställ in på ökat läge",
							"continuous": "Ställ in på kontinuerlig körning",
							"off": "Ställ in på av",
							"schedule": "Ställ in på schema"
						}
					},
					"root": {
						"notifyMe": "Skicka en avisering till mig",
						"propertyChange": "Ändra en enhetsegenskap"
					}
				},
				"thenDoThis": {
					"header": "GÖR DÅ DETTA SENARE",
					"root": {
						"stateOfEquipment": "Utrustningens status",
						"undo": "Ångra"
					},
					"timer": {
						"changeCheckBox": "Tillåt användare att ändra varaktighet",
						"hours": "Så många timmar",
						"minutes": "Så många minuter",
						"title": "Hur mycket senare ska detta hända?"
					},
					"undo": {
						"title": "Ändra denna OneTouch?"
					}
				},
				"when": {
					"dayOfWeek": {
						"finalMenu": "Välj de dagar då du skulle vilja köra din OneTouch.",
						"picker": "Välj veckodagar",
						"weekday": "Vardagar",
						"weekend": "Helger"
					},
					"header": "NÄR",
					"pressAButton": {
						"button": "Regel avfyras vid knapptryckning"
					},
					"root": {
						"dayOfWeek": "Veckodag",
						"pressAButton": "Jag trycker på en knapp",
						"stateOfEquipment": "Utrustningens status",
						"timeOfDay": "Tid på dagen",
						"weather": "Väder"
					},
					"stateOfEquipment": {
						"doorWindow": {
							"closed": "Är stängt",
							"open": "Är öppet"
						},
						"equipmentCategory": "Utrustningskategorier",
						"equipmentGroup": "Utrustningsgrupper",
						"individualEquipment": "Individuell utrustning",
						"sensor": {
							"alert": "Sensorn varnar"
						},
						"smartPlug": {
							"off": "Mellanstickkontakten är AV",
							"on": "Mellanstickkontakten är PÅ"
						},
						"thermostats": {
							"above": "Över",
							"below": "Under",
							"between": "Mellan",
							"enterValue": "Ange temperatur",
							"selectAboveValue": "Välj övre temperatur",
							"selectBelowValue": "Välj undre temperatur"
						},
						"waterHeater": {
							"boost": "Är i ökat läge",
							"continuous": "Körs kontinuerligt",
							"off": "Är av",
							"schedule": "Kör schema"
						}
					},
					"timeOfDay": {
						"endTime": "Sluttid",
						"endTimeError": "Sluttid måste vara efter starttid",
						"formatError": "Ange i korrekt format",
						"specify": "Ange tid",
						"startTime": "Starttid",
						"sunriseSunset": "Soluppgång / solnedgång",
						"to": "till"
					},
					"weather": {
						"current": "Nuvarande temperatur",
						"forecast": "Väderprognos"
					}
				}
			},
			"recommended": {
				"addRecommended": "Lägg till OneTouch",
				"modal": {
					"titleFormatted": "Använd OneTouch-regel '__ruleName__'"
				},
				"smartPlug": {
					"12am": {
						"description": "Slå av en mellanstickkontakt vid midnatt",
						"name": "Slå av vid midnatt",
						"nameFormatted": "Slå av vid midnatt: __name__"
					},
					"oneHour": {
						"description": "Slå på mellanstickkontakt i 1 timme",
						"name": "Entimmes-timer",
						"nameFormatted": "Entimmes-timer: __name__"
					},
					"title": "Mellanstickkontakter",
					"turnOff": {
						"description": "Slå av en mellanstickkontakt omedelbart",
						"name": "Slå av",
						"nameFormatted": "Slå av: __name__"
					}
				},
				"thermostat": {
					"title": "Termostater",
					"turnOff": {
						"description": "Slå av en termostat omedelbart",
						"name": "Slå av termostat",
						"nameFormatted": "Slå av termostat: __name__"
					}
				},
				"title": "Rekommenderad",
				"waterHeater": {
					"boostFor2": {
						"description": "Slå på boost-läge i 2 timmar",
						"name": "Boost i 2 timmar",
						"nameFormatted": "Boost i 2 timmar: __name__"
					},
					"title": "Varmvattenberedare"
				}
			}
		},
		"property": {
			"names": {
				"coolingSetpoint_x100": "Börvärde för kyla",
				"heatingControl": "Värmekontroll",
				"temperatureOffset": "Rumstemperaturförskjutning",
				"cylinderConnection": "Cylinderanslutning",
				"oUTSensorProbe": "Sensorsond",
				"oUTSensorType": "Sensorsond använd som luftsensor eller golvsensor",
				"coolingControl": "Kylkontroll",
				"actuatorType": "Typ av manövreringsaktuator",
				"valveProtection": "Ventilskydd",
				"frostSetpoint_x100": "Frostskyddstemperatur",
				"floorCoolingMin_x100": "Golvsensorns gräns för kylning",
				"floorHeatingMax_x100": "Högsta temperaturgräns för golvsensor",
				"floorHeatingMin_x100": "Lägsta temperaturgräns för golvsensor",
				"heatingSetpoint_x100": "Börvärde för värme",
				"holdDuration": "Hålltid (minuter)",
				"lEDMode": "LED-läge",
				"lockKey": "Vill du ändra låsinställningarna på din termostat?",
				"keyLock": "Vill du ändra låsinställningarna på din termostat?",
				"maxHeatSetpoint_x100": "Börvärdesgräns för värme",
				"minCoolSetpoint_x100": "Börvärdesgräns för kylning",
				"networkLANIP": "IP-adress",
				"networkLANMode": "Nätverks-LAN-läge",
				"networkLANRouterAddr": "Router",
				"networkLANSubnet": "Subnätmask",
				"networkPriDNS": "Primär DNS",
				"networkSecDNS": "Sekundär DNS",
				"shutOffDisplay": "Slå Av LCD-skärm",
				"systemMode": "Systemläge",
				"temperatureDisplayMode": "Fahrenheit ELLER Celsius",
				"timeFormat24Hour": "Timformat"
			},
			"values": {
				"actuatorClosed": "Normalt stängd",
				"actuatorOpen": "Normalt öppen",
				"alwaysOn": "Alltid på",
				"auto": "Auto",
				"celsius": "Celsius",
				"cool": "Kyl",
				"cylinderConnected": "Cylindersond ansluten",
				"cylinderNotConnected": "Cylindersond inte ansluten",
				"disabled": "Inaktiverad",
				"dynamic": "Dynamisk",
				"emergencyHeating": "Nödvärme",
				"enabled": "Aktiverad",
				"fahrenheit": "Fahrenheit",
				"heat": "Värme",
				"hour12": "12:00",
				"hour24": "24:00",
				"locked": "Ja, lås den",
				"longCycle": "+/- 0,5 grad C",
				"midCyle": "+/- 0,25 grad C",
				"no": "Nej",
				"numberInCFormatted": "__number__ grader C",
				"numberInFFormatted": "__number__ grader F",
				"off": "Av",
				"offWhenIdle": "Av vid inaktivitet",
				"on": "På",
				"sensorAir": "Luftgivare",
				"sensorConnected": "Sensorsond ansluten",
				"sensorDewPointConnected": "Daggpunktssond ansluten",
				"sensorFloor": "Golvsnesor",
				"sensorNotConnected": "Ingen sensor ansluten",
				"shortCyle": "+/- 0",
				"static": "Statisk",
				"turnOff": "Slå Av",
				"turnOn": "Slå På",
				"unlocked": "Nej, lås den inte",
				"yes": "Ja"
			}
		},
		"provisioning": {
			"boilerReceiver": "iT600 Pannmottagare",
			"coMonitor": "Kolmonoxiddetektor",
			"coordinator": "Koordinatorenhet",
			"device": "Salus-kontrollerad enhet",
			"doorSensor": "Dörrsensor",
			"energyMeter": "Energimonitor för hela huset",
			"gateway": "Salus Universal-gateway",
			"gatewayNode": "Gatewaynod",
			"it530Thermostat": "iT530 Termostat",
			"it600Thermostat": "iT600 Termostat",
			"namedEnergyMonitor": "__name__'s Energimonitor",
			"optimaThermostat": "Optima-termostat",
			"smartPlug": "Mellanstickkontakt",
			"smokeAlarm": "Rökdetektor",
			"trv": "iT600 TRV",
			"windowSensor": "Fönstersensor",
			"wiringCenter": "iT600 Ledningscentral"
		},
		"schedule": {
			"create": {
				"description": "Scheman kör automatiskt din utrustnings förinställningar.",
				"no": "Inte nu",
				"question": "Vill du skapa ett schema för denna utrustning nu?",
				"yes": "Ja, skapa ett schema"
			},
			"widget": {
				"title": "Schema"
			}
		},
		"settings": {
			"empty": "Du har tyvärr inga inställningar att visa!",
			"networkSettingsSaveConfirmSecondary": "Vill du spara dina nätverksinställningar?",
			"networksSettingsSaveConfirmPrimary": "Du har uppdaterat dina nätverksinställningar.  Om du sparar detta måste du stanna kvar på den här sidan i 1 minut.",
			"networksSettingsSavingPrimary": "Vi sparar dina nätverksinställningar. Navigera inte härifrån.",
			"networksSettingsSavingSecondary": "Det här kommer att ta cirka 1 minut.",
			"title": "Inställningar"
		},
		"stackedBarGraph": {
			"time": "Tid",
			"watts": "Watt"
		},
		"status": {
			"alias": "Namn på utrustning",
			"battery": {
				"charged": "__val__% laddat"
			},
			"monitoring": "Övervakning",
			"thermostat": {
				"lock": "Termostat låst",
				"unlock": "Termostat upplåst"
			}
		},
		"thermostat": {
			"frostPointModal": {
				"header": "Slå av HVAC-system",
				"labels": {
					"buttonCancel": "Avbryt",
					"buttonTurnOff": "Slå av HVAC",
					"chooseFrostPoint": "Välj frostskyddstemperatur",
					"radioNo": "Nej, ställ inte in en frostskyddstemperatur",
					"radioYes": "Ja, ställ in frostskyddstemperaturen på"
				},
				"subHeader": "Vill du ange en frostskyddstemperatur?",
				"tempModeC": "__number__ &#8451;",
				"tempModeF": "__number__ &#8457;"
			},
			"holdPointModal": {
				"header": "Håll inställd temperatur",
				"holdTitle": "Håll",
				"labels": {
					"btnCancel": "Avbryt",
					"btnOk": "Ok",
					"radioScheduleChange": "Till nästa schemaändring",
					"radioUntilChange": "Tills jag ändrar temperaturen"
				}
			},
			"menus": {
				"modeLabels": {
					"auto": "Auto",
					"cooling": "Kylning",
					"fan": "Fläkt",
					"fanOn": "Fan On",
					"followSchedule": "Följ schema",
					"heating": "Värme",
					"off": "Av",
					"permanentHold": "Håll permanent",
					"systemOff": "System av",
					"temporaryHold": "Håll temporärt"
				}
			}
		},
		"thermostatSingleControl": {
			"createPage": {
				"addButtonText": "Lägg till ett nytt centralreglage",
				"bottomBlurb": "Du kommer fortfarande att kunna göra ändringar i det här centralreglaget när att du har konfigurerat den.",
				"delete": "Radera centralreglage",
				"deviceError": "Det måste finnas åtminstone 1 kopplad enhet i CR",
				"error": "Det gick inte att skapa CR. Försök igen",
				"individualControls": "Individuella kontroller",
				"nameError": "Ange ett giltigt namn för ditt CR",
				"newTSCSectionTitle": "Namnge detta centralreglage",
				"newTSCText": "t.ex. sovrum på övervåningen",
				"thermostatsSectionTitle": "Välj de termostater som du vill ha i detta centralreglage.",
				"titleExisting": "Centralreglage",
				"titleNoExisting": "Konfiguration av ett centralreglage",
				"typeError": "Du kan inte blanda termostatmodelltyper i ett CR"
			},
			"initialSetup": {
				"description": "Ändra en, ändra många. Lorem ipsum dolor sit amet, consectetur adipiscing elit. Sed gravida bibendum dictum. Maecenas nec eleifend dui. Suspendisse mollis purus scelerisque maximus ultricies. Nulla a metus arcu. Interdum et malesuada fames ac ante ipsum",
				"prompt": "Vill du konfigurera ett centralreglage för flera termostater?",
				"title": "Konfiguration av ett centralreglage"
			},
			"title": "Centralt termostatreglage"
		},
		"trv": {
			"add": "Add TRV",
			"modal": {
				"title": "Välj TRV(er) för __name__",
				"tooMany": "Du kan koppla upp till 6 TRV:er till en termostat"
			},
			"noTrvs": "Inga TRV:er är för närvarande kopplade till denna enhet",
			"title": "TRV:er på denna termostat"
		},
		"usage": {
			"interactiveMode": "Interaktivt läge",
			"title": "Användning"
		}
	},
	"error404": {
		"backToDash": "Tillbaka till hem",
		"message": "Sidan du letar efter hittades inte.",
		"title": "404-fel"
	},
	"errors": {
		"responseText": "Svarstext:",
		"serviceEndpoint": "Slutpunkt för tjänst.",
		"siteMessage": "Ett fel uppstod, klicka här för att försöka igen!",
		"statusCode": "Statuskod:",
		"statusText": "Statustext:"
	},
	"key": "konsument-en",
	"login": {
		"changePasswordWithToken": {
			"button": "Spara nytt lösenord",
			"confirmPasswordLabel": "Bekräfta nytt lösenord",
			"message": "Skapa ett nytt lösenord",
			"newPasswordLabel": "Nytt lösenord",
			"resetPasswordTokenLabel": "Återställ lösenordstoken"
		},
		"confirm": {
			"emailSent": "Vi skickar dig ett e-postmeddelande till dig nu, så att du kan bekräfta ditt konto.",
			"headline": "Nästan klar",
			"ready": "Är du redo att logga in?",
			"resend": "Ditt konto är nästan bekräftat, __user_name__!",
			"thanks": "Tack för att du registrerade dig, __user_name__!",
			"trustedSender": "Lägg till email@salus.com bland dina säkra e-postkontakter så att du kan ta emot uppdateringar från oss."
		},
		"forgotPassword": {
			"backToSignInLinkLabel": "Tillbaka till inloggning",
			"button": "Skicka temporär token via e-post",
			"inputLabel": "E-postadress för detta konto",
			"message": "Har du glömt ditt lösenord?"
		},
		"forgotPasswordConfirmation": {
			"button": "Tillbaka till inloggning",
			"message": "Vi har skickat instruktioner för lösenordsåterställning till dig. Kolla din e-post.",
			"title": "Glömt lösenord"
		},
		"headline": "Välkommen till\nSalus",
		"login": {
			"accountLink": "Konfigurera ett konto",
			"accountMessage": "Har du inget konto än?",
			"button": "Logga in",
			"emailLabel": "E-post",
			"error": {
				"accountLocked": "Ditt konto har låsts på grund av felaktiga inloggningsförsök. Vänta 30 minuter innan du loggar in igen.",
				"invalidLanguage": "Välj ett språk",
				"invalidUsernamePassword": "Ditt lösenord eller din e-postadress är felaktig. Försök igen."
			},
			"forgotPassword": "Har du glömt ditt lösenord?",
			"keepLoggedIn": "Håll mig inloggad",
			"passwordLabel": "Lösenord",
			"resendConfirmationEmail": "Skicka om e-postbekräftelse",
			"siloMessage": {
				"eu": "Byt till USA-appen",
				"us": "Byt till EU-appen"
			}
		},
		"pinpad": {
			"authInvalid": "Den angivna PIN-koden var ogiltig",
			"authSuccess": "PIN autentiserad",
			"pinRemoveFail": "Kunde inte ta bort PIN-kod",
			"pinRemoved": "PIN-koden är borttagen",
			"setFail": "Kunde inte ställa in PIN-koden",
			"setSuccess": "PIN-koden har ställts in"
		},
		"resetPassword": {
			"changeFailed": "Försöket att ändra ditt lösenord misslyckades",
			"requestNewToken": "Du kan begära en ny token genom att navigera till Har du glömt ditt lösenord",
			"title": "Det gick inte att ändra lösenordet.",
			"tokensExpire": "Tokens upphör att gälla efter 6 timmar",
			"tryAgain": "Du kan försöka igen om din token är felskriven"
		},
		"sendConfirmationEmail": {
			"backToSignInLinkLabel": "Tillbaka till inloggning",
			"button": "Skicka om e-postbekräftelse",
			"message": "Kontobekräftelse"
		},
		"signInWithToken": {
			"button": "Koppla enhet",
			"error": {
				"invalidToken": "login.signInWithToken.error.invalidToken"
			},
			"inputLabel": "Aktiveringskod",
			"message": "Koppla den här mobila enheten till ditt konto"
		},
		"welcome": {
			"accountLink": "Inloggning",
			"accountMessage": "Har du redan ett konto?",
			"button": "Registrera dig",
			"message": "Då sätter vi igång."
		}
	},
	"messageCenter": {
		"alerts": {
			"alarmSounding": "Larmet ljuder nu",
			"alert": "Larm",
			"criteria": "Larmkriterier",
			"currentStatus": "Nuvarande status",
			"dateTime": "Datum och tid",
			"details": "Detaljer",
			"equipment": "Utrustning",
			"subHeader": "Larm lorem ipsum dolor sit amet alipsis diam.",
			"title": "Larm"
		},
		"notifications": {
			"subHeader": "Aviseringar för de senaste 90 dagarna",
			"title": "Aviseringar"
		},
		"title": "Meddelandecentral"
	},
	"missingKey": "##############################",
	"myStatus": {
		"addNewGateway": "Lägg till en ny gateway",
		"addNewStatus": "Lägg till en ny status",
		"makeNewStatus": {
			"createNewOneTouch": "Skapa en ny OneTouch för denna status",
			"delete": "Radera status",
			"deleteWarning": "Radera denna status?",
			"editName": {
				"name": "Namn"
			},
			"invalidGateway": "Du använder en ogiltig gateway. Ändra din gateway, eller lägg till en ny giltig gateway.",
			"ruleView": {
				"run": "Kör när status startar"
			}
		},
		"newStatus": {
			"createStatusTitle": "Skapa en ny status",
			"formFields": {
				"continue": "Fortsätt",
				"statusName": "Namn på status"
			},
			"giveStatusName": "Namnge denna status",
			"selectIcon": "Välj en ikon för din status",
			"selectIconInstructions1": "Välj en ikon från din IT600 och kontrollera din status från IT600 eller appen.",
			"selectIconInstructions2": "Välj en annan ikon för att kontrollera din status från appen.",
			"showLessIcons": "Visa färre ikoner",
			"showMoreIcons": "Visa fler ikoner"
		},
		"newStatusAdded": "Ny status tillagd",
		"noGatewayMessage": "Ingen gateway upptäckt. Lägg till en gateway.",
		"title": "Min Status"
	},
	"schedules": {
		"deviceTypes": {
			"smartPlug": "mellanstickkontakter",
			"thermostat": "termostater",
			"waterHeater": "varmvattenberedare"
		},
		"edit": {
			"changeIndividualThermostat": {
				"no": "Nej, bara den här",
				"subtitle": "Vill du göra den här ändringen för alla termostater av samma modell?",
				"title": "Du kommer att ändra en inställning för en av termostaterna.",
				"yes": "Ja, gör det för alla som har den här modellen"
			},
			"changeSingleControl": {
				"changeGroup": {
					"no": "Nej, inte nu",
					"subtitle": "Är du säker på att du vill göra det här nu?",
					"title": "Du kommer att ändra inställningarna för alla termostater i centralreglaget",
					"yes": "Ja, gör ändringen"
				},
				"changeSingle": {
					"changeJustThermostat": "Ändra bara den här termostaten",
					"changeSingleControl": "Ändra alla termostater i centralreglaget",
					"subtitle": "Vill du göra den här ändringen för alla termostater i centralreglaget?",
					"title": "Du kommer att ändra inställningarna för en av termostaterna i centralreglaget"
				}
			},
			"modal": {
				"addNew": "Lägg till ett nytt centralreglage",
				"deleteLabel": "Ta bort centralreglage",
				"duplicateTstatsErrorBody": "Kontrollera att samma termostat inte är markerad i mer än ett centralreglage, och att alla centralreglage har ett namn och åtminstone en termostat vald.",
				"duplicateTstatsErrorTitle": "Fel: Ett eller flera centralreglage kunde inte sparas.",
				"emptyIndividualControls": "Inga individuella kontroller tillgängliga",
				"emptySingleControls": "Inga centralreglage tillgängliga",
				"emptyThermostats": "Inga termostater tillgängliga",
				"individualLabel": "Individuella kontroller",
				"nameLabel": "Namn på detta centralreglage",
				"title": "Redigera centralreglage för termostaterna"
			},
			"previousScreen": "< Schemalägg förinställningar",
			"thermostatList": {
				"emptyThermostats": "Inga tillgängliga termostater eller centralreglage"
			},
			"thermostatSettings": {
				"addInterval": "Lägg till intervall",
				"apply": "Använd schema",
				"cancel": "Avbryt",
				"description": "Lorem ipsum dolor sit amet, in molestie sententiae pro, an qui sint iuvaret officiis. Aperiri equidem ea vis, eam natum affert vituperata ex, nec ne constituam philosophia.",
				"start": "STARTTID",
				"temp": "TEMPERATUR"
			}
		},
		"emptyView": {
			"message": "You have no __type__ on this gateway. Please add __type__ to set schedules for them."
		},
		"presets": {
			"description": "Vi har designat tre förinställda scheman baserade på vanliga dagliga livsstilar. Välj ett av de tre eller skapa ditt eget.",
			"presetSchedules": {
				"createNew": {
					"description": "Konfigurera dina egna termostatscheman så att ditt hem fungerar precis som du vill ha det.",
					"title": "Skapa ditt eget schema"
				},
				"mostlyAway": {
					"description": "Designat för de som är borta mer än de är hemma.",
					"title": "Borta för det mesta"
				},
				"mostlyHome": {
					"description": "För de som är hemma mer än de är borta.?",
					"title": "Hemma för det mesta"
				},
				"workingWeek": {
					"description": "För hem som använder sig av ett traditionellt 9.00-18.00 måndag-fredagschema, inklusive hemma på helgerna.",
					"title": "Traditionell arbetsvecka"
				}
			},
			"title": "Välj ett förinställt schema eller skapa ditt eget"
		},
		"schedule": {
			"addInterval": "Lägg till intervall",
			"columnLabels": {
				"mode": "SYSTEMLÄGE",
				"startTime": "STARTTID",
				"temperature": "TEMPERATUR"
			},
			"deleteInterval": "Ta bort intervall",
			"newInterval": {
				"add": "Lägg till",
				"mode": {
					"cool": "Kyla",
					"heat": "Värme",
					"off": "På",
					"on": "Av",
					"title": "Läge:"
				},
				"startTime": "Starttid",
				"temperature": "Temperatur",
				"temperatureError": "Ogiltig temperatur. Ange ett värde mellan __floor__ och __ceiling__. Decimalsiffror måste sluta på 0 eller 5",
				"timeError": "Den angivna tiden är ogiltig. Ange en tid i formatet tt:mm fm/em",
				"title": "Lägg till ett nytt intervall",
				"update": "Uppdatera"
			},
			"noIntervals": "Det finns inga intervall i det här schemat.",
			"weekConfigurations": {
				"MO-FR": "MÅ - FR",
				"MO-SU": "MÅ - SÖ",
				"SA-SU": "LÖ - SÖ"
			},
			"weekDropdown": {
				"daily": "Dagligen",
				"fullWeek": "Hemma för det mesta / MÅ-SÖ",
				"workWeek": "Arbetsvecka / MÅ-FR och LÖ+SÖ"
			}
		},
		"smartPlug": {
			"title": "Schema för mellanstickkontakt"
		},
		"thermostat": {
			"duplicateSchedule": {
				"description": "Vilken/vilka termostat(er) skulle du vilja duplicera detta schema till?",
				"duplicate": "Duplicera",
				"error": "Du måste ha schemaposter för att kunna duplicera ett schema. Kontrollera att du har sparat ditt schema",
				"title": "Duplicera schema"
			},
			"instructions": "Välj den typ av schema som du skulle vilja skapa för detta centralreglage",
			"selectionTitle": "Välj en schemakonfiguration",
			"subtitle": "Skapa ditt eget schema",
			"title": "Schema för termostat"
		},
		"waterHeater": {
			"title": "Schema för varmvattenberedare"
		}
	},
	"settings": {
		"about": {
			"buildDateTitle": "Skapad den",
			"companyName": "Salus Controls Inc.",
			"companyTitle": "Company",
			"copyrightFormatted": "© __currentYear__ Salus Controls Inc.",
			"releasedTitle": "Publicerad",
			"versionTitle": "Version"
		},
		"dataCollection": {
			"options": {
				"off": "Du har alltid rätt att stänga av datainsamling av. Om du stänger av detta innebär det att programmet inaktiveras automatiskt och att din mobila enhet eller dator inte kan användas för att hantera din utrustning eller tjänst. Du kan alltid hantera utrustningen manuellt. Se användarhandboken för utrustningen.",
				"on": "Vi rekommenderar att du har detta PÅ. Data som samlats in från din mobila enhet och utrustning används för att köra programmet, dina anslutna hemtjänster, och för att skicka viktiga varningar och meddelanden.",
				"optionPrefix": "Datainsamling är",
				"referUserGuide": "Du kan alltid hantera din utrustning manuellt.  Anvisningar finns i användarhandboken för utrustningen."
			},
			"subheader": "Du har valt att stänga av datainsamlingen. Du har därmed inaktiverat programmet. Aktivera datainsamling om du vill fortsätta använda programmet",
			"title": "Datainsamling"
		},
		"manageDevices": {
			"devices": {
				"addShare": "Länka en mobil enhet",
				"deleteShareModal": "Du kommer att radera",
				"deleteUser": "Radera användare",
				"description": "Du kan dela din SalusConnect-utrustning med så många personer som du önskar. Du kontrollerar vad dina gäster ser och kan komma åt.",
				"empty": "Du har inte delat ditt konto med några gäster.",
				"formHeader": "Länka en mobil enhet",
				"formLabels": {
					"countrySelect": "Land",
					"deselectAll": "Avmarkera alla",
					"deviceListHeader": "Ge denna gäst tillgång till:",
					"email": "E-postadress",
					"emptyDevices": "Inga tillgängliga enheter",
					"firstName": "Förnamn",
					"lastName": "Efternamn",
					"name": "Namn eller alias för denna enhet",
					"selectAll": "Markera alla"
				},
				"header": "Kontodelning"
			},
			"gateway": {
				"addGateway": "Lägg till en gateway",
				"description": "",
				"empty": "Du har ingen ansluten gateway.",
				"header": "Gateways"
			},
			"title": "Hantera konto"
		},
		"profile": {
			"changePassword": {
				"formFields": {
					"confirmPassword": "Bekräfta lösenord",
					"newPassword": "Nytt lösenord",
					"oldPassword": "Gammalt lösenord"
				},
				"passwordRequirements": "Lösenordet måste ha mellan 6 och 14 tecken och innehålla en siffra (0-9) eller symbol, en gemen (a-z) och en versal (A-Z).",
				"title": "Ändra lösenord"
			},
			"deleteProfile": "Radera användarprofil",
			"deleteProfileErrorMsg": "Fel vid radering av användarprofil. Försök igen senare",
			"deleteProfileWarningLine1": "Radera din användarprofil?",
			"deleteProfileWarningLine2": "Denna operation kan inte göras ogjord",
			"formFields": {
				"email": "E-postadress",
				"emailConfirm": "Bekräfta e-postadress",
				"firstName": "Förnamn",
				"languageSelect": "Språk",
				"lastName": "Efternamn",
				"submitButton": "Skicka"
			},
			"title": "Redigera profil"
		}
	},
	"setupWizard": {
		"headline": "Välkommen till Salus!",
		"landing": {
			"createProfile": {
				"active": "Din profil har skapats."
			},
			"equipmentConnect": {
				"button": "Anslut utrustning",
				"inactive": "Anslut din utrustning till din gateway nu."
			},
			"equipmentShare": {
				"button": "Dela utrustning",
				"inactive": "Dela din utrustning genom att ge din familj och dina vänner behörighet."
			},
			"gatewayConnect": {
				"active": "Din gateway är nu aktiverad och redo att anslutas till din utrustning.",
				"button": "Aktivera gateway",
				"inactive": "Aktivera din gateway för att börja använda dina enheter."
			},
			"header": {
				"connect": "Anslut utrustning till din gateway",
				"gateway": "Aktivera din gateway"
			},
			"subHeaderHtml": {
				"connect": "Klar! Din profil har skapats och din gateway är aktiverad.<br/>Nu ska vi koppla enheter och ansluta din utrustning till din gateway.",
				"gateway": "Klar! Din profil har skapats och din gateway är aktiverad."
			}
		},
		"newUserForm": {
			"cookieModal": {
				"information": "Cookies gör att Salus-webbplatsen kan fungera på ett bra sätt. Vi använder dem enbart för att komma ihåg inloggningsuppgifter, tillhandahålla säker inloggning, och samla statistik för att optimera funktionaliteten. Du kan inte fortsätta utan att klicka på Acceptera. Se vår __privacy_policy__ för mer information."
			},
			"equipment": "Har du en gateway?",
			"formFields": {
				"countrySelect": "Land",
				"email": "E-postadress",
				"emailConfirm": "Bekräfta e-postadress",
				"firstName": "Förnamn",
				"languageSelect": "Språk",
				"lastName": "Efternamn",
				"password": "Lösenord",
				"passwordConfirm": "Bekräfta lösenord",
				"phone": "Telefonnummer",
				"phoneType": "Telefontyp",
				"privacyPolicyLabel": "Jag accepterar Salus kontroller",
				"privacyPolicyLinkLabel": "Sekretesspolicy",
				"submitButton": "Skapa min profil",
				"termsAndConditionsLabel": "Jag accepterar Salus kontroller",
				"termsAndConditionsLinkLabel": "Användarvillkor"
			},
			"header": "Inrättning är enkel.",
			"passwordRequirements": "Lösenordet måste ha mellan 6 och 14 tecken och innehålla en siffra (0-9) eller symbol, en gemen (a-z) och en versal (A-Z).",
			"phoneTypes": {
				"phone": "Telefon",
				"tablet": "Surfplatta"
			},
			"subheader": "Skapa din profil",
			"tooltip": {
				"equipment": "Skickar en signal till din utrustning så att du har fjärråtkomst."
			}
		},
		"pairing": {
			"buttonText": "Sök efter utrustning",
			"header": "Välkommen! Nu ska vi ansluta din utrustning",
			"noCoordinator": "Ingen kooordinator",
			"paragraphHtml": "Innan vi ansluter din utrustning måste du se till att all utrustning är påslagen.<ol><li>Börja med att hitta knappen på varje utrustningsenhet. Tryck inte på den än. Om du har problem med att hitta utrustningens knapp kan du titta i användarhandboken.</li><li>Tryck sedan på den orange knappen ”Sök efter utrustning” nedan. Obs! När du har tryckt på \"Sök efter utrustning\" har du bara två minuter på dig att trycka på knappen på din utrustning från Steg 1. Håll ner denna knapp i tre sekunder.</li><li>Upprepa proceduren tills du kan se all din utrustning nedan. Om du har upprepat proceduren flera gånger, och inte ser din utrustning, ska du kontakta kundsupporten.</li></ol>",
			"requiresCoordinator": "Enhetsallokering kräver att en koordinatorenhet har registrerats på din gateway. Försök registrera din gateway igen."
		},
		"provisioning": {
			"customize": {
				"access": "Åtkomst",
				"accessInfo": "Vill du att någon annan ska kunna komma åt den här utrustningen? I så fall markerar du det nedan.",
				"clampsError": "Du måste välja 3 klämmor.",
				"clampsReading": "Markera de klämmor du använder",
				"completeSetup": "Slutför konfigurationen",
				"continueSetupEquipment": "Fortsätt med konfigurationen av din utrustning",
				"energyMonitor": "Energimätare för hela huset har konfigurerats",
				"noShares": "Inga delade användare är tillgängliga för närvarande. Du kommer att kunna dela din utrustning när konfigurationen är klar.",
				"oneTouch": "OneTouch",
				"oneTouchInfo": "OneTouch låter dig automatiskt använda och/eller skapa larm för en eller fler utrustningsenheter med en enda tryckning. Vi har förvalt alternativ som kan passa för dina behov. Om du inte gillar dem, avmarkerar du helt enkelt OneTouch eller väljer ett annat alternativ. Du kan alltid göra ändringar i OneTouch senare.",
				"oneTouchPreselected": "We’ve pre-selected options that might fit your needs. If you don’t like them, simply uncheck the OneTouch or choose a different one. You can always make changes to any OneTouch later.",
				"phasesReading": "Hur många faser?",
				"pin": "Vill du fästa den här utrustningsenheten till instrumentpanelen?",
				"pinHeader": "Fäst",
				"pinInfo": "Fäst dina viktigaste objekt på instrumentpanelen för snabb, enkel tillgång.",
				"selectAnother": "Välj nästa utrustningsenhet.",
				"selectPhases": "Välj faser",
				"selectVoltage": "Välj spänning",
				"selectWhich": "Välj vilken utrustning du vill börja med.",
				"setupEquipment": "Nu ska vi konfigurera din utrustning",
				"success": {
					"mobile": {
						"description": "Letar du efter bekvämligheten hos en App? Ladda ned vår app för dina enheter nu. Finns på iTunes eller GooglePlay.",
						"link": "Ladda ned appen",
						"title": "Mobilappen"
					},
					"myDashboard": {
						"description": "Gå till din nya instrumentpanel. Få en överblick av din utrustning så att du enkelt och bekvämt kan hantera den från en enda skärm. Du kan lägga till mer utrustning från instrumentpanelen senare.",
						"link": "Gå till min instrumentpanel",
						"title": "Min instrumentpanel"
					},
					"title": "Klar!\nKonfigurationen har slutförts."
				},
				"successfullySetup": "Klar! Konfigurationen har slutförts.",
				"voltageReading": "Vilken är din spänning?"
			},
			"naming": {
				"nowConnected": "Nedanstående utrustning är inte ansluten till din gateway. Namnge din utrustning.",
				"success": "Klar!",
				"textbox": "Namnge denna utrustning (t.ex. termostat i badrummet)"
			},
			"select": {
				"connect": "Anslut utrustning",
				"currentlyScanning": "Söker efter enheter...",
				"letsConnect": "Nu ska vi ansluta din utrustning",
				"notFound": "Hittade tyvärr inga enheter",
				"select": "Kryssa för rutan bredvid varje utrustningsenhet som du vill ansluta nu. Klicka på \"Anslut utrustning\".",
				"selectError": "Välj minst en utrustningsenhet innan du fortsätter"
			}
		},
		"subheader": "Som förstagångsanvändare ber vi dig att slutföra några enkla steg för att hantera ditt konto och din utrustning.<br/>Vi börjar med att konfigurera ditt nya system."
	}
}							
