{
	"common": {
		"brand": "Salus",
		"countries": {
			"cz": "Tschechische Republik",
			"de": "Deutschland",
			"dk": "Dänemark",
			"es": "Spanien",
			"fr": "Frankreich",
			"hu": "Ungarn",
			"it": "Italien",
			"nl": "Niederlande",
			"no": "Norwegen",
			"pl": "Polen",
			"ro": "Rumänien",
			"ru": "Russland",
			"sk": "Slowakei",
			"sl": "Slovenien",
			"sv": "Schweden",
			"uk": "Vereinigtes Königreich",
			"us": "Vereinigte Staaten"
		},
		"daysOfWeek": {
			"abbreviations": {
				"friday": "Fr",
				"monday": "Mo",
				"saturday": "Sa",
				"sunday": "So",
				"thursday": "Do",
				"tuesday": "Di",
				"wednesday": "Mi"
			}
		},
		"footer": {
			"copyrightText": "Salus Controls, Inc. Alle Rechte vorbehalten.",
			"privacyPolicy": "Datenschutzrichtlinie",
			"termsAndConditions": "Geschäftsbedingungen"
		},
		"header": {
			"about": "Über diese App",
			"allEquipment": "Sämtliche Anlagen",
			"contactSupport": "Kundendienst kontaktieren",
			"dataCollection": "Datenerhebung",
			"equipment": "Anlagen",
			"faq": "FAQ",
			"gateways": "Gateways",
			"help": "Hilfe",
			"home": "Home",
			"logout": "Logout",
			"messageCenter": "Benachrichtigungs-Center",
			"myStatus": "Mein Status",
			"oneTouch": "OneTouch",
			"profile": "Profil",
			"settings": "Einstellungen",
			"setupEquipment": "Anlagen einrichten"
		},
		"labels": {
			"accept": "Akzeptieren",
			"apply": "Anwenden",
			"back": "Zurück",
			"cancel": "Abbrechen",
			"close": "Schließen",
			"create": "Erstellen",
			"daily": "Täglich",
			"delete": "Löschen",
			"edit": "Bearbeiten",
			"email": "E-Mail",
			"enable": "Aktivieren",
			"finished": "Fertig",
			"monthly": "Monatlich",
			"next": "Weiter",
			"no": "Nein",
			"off": "aus",
			"ok": "OK",
			"on": "ein",
			"save": "Speichern",
			"saved": "Gespeichert",
			"select": "Auswählen",
			"set": "Bestätigen",
			"skip": "Überspringen",
			"turnOff": "Ausschalten",
			"turnOn": "Einschalten",
			"weekly": "Wöchentlich",
			"yearly": "Jährlich",
			"yes": "Ja"
		},
		"languages": {
			"cs": "Tschechisch",
			"da": "Dänisch",
			"de": "Deutsch",
			"en-uk": "Englisch (GB)",
			"en-us": "Englisch (US)",
			"es": "Spanisch",
			"fr": "Französisch",
			"hu": "Ungarisch",
			"it": "Italienisch",
			"nl": "Niederländisch",
			"no": "Norwegisch",
			"pl": "Polnisch",
			"ro": "Rumänisch",
			"ru": "Russisch",
			"sk": "Slowakisch",
			"sl": "Slowenisch",
			"sv": "Schwedisch"
		},
		"lessDetails": "Weniger anzeigen",
		"loadingMessage": "Salus lädt...",
		"months": {
			"april": "April",
			"august": "August",
			"december": "Dezember",
			"february": "Februar",
			"january": "Januar",
			"july": "Juli",
			"june": "Juni",
			"march": "März",
			"may": "Mai",
			"november": "November",
			"october": "Oktober",
			"september": "September"
		},
		"moreDetails": "Mehr anzeigen",
		"symbols": {
			"celsius": "&#8451;",
			"fahrenheit": "&#8457;"
		},
		"validation": {
			"ayla": {
				"cantbeblank": "Dieses Feld darf nicht leer bleiben.",
				"confirmaccountbeforecontinue": "Bitte bestätigen Sie zunächst das Konto, bevor Sie fortfahren",
				"hasalreadybeentaken": "Diese E-Mail-Adresse ist bereits vergeben",
				"isinvalid": "Dieses Feld ist ungültig",
				"tokeninvalid": "Dieses Token ist ungültig",
				"useridisalreadygratnedforthatresource": "Diese E-Mail-Adresse ist bereits vergeben"
			},
			"default": {
				"requiredField": "Dieses Feld ist erforderlich"
			},
			"email": {
				"alreadyConfirmed": "Diese E-Mail-Adresse wurde bereits bestätigt.",
				"notFound": "Für diese E-Mail ist kein Konto bekannt",
				"notMatching": "Die von Ihnen eingegebenen E-Mail-Adressen stimmen nicht überein",
				"notValid": "Die von Ihnen eingegebene E-Mail ist keine gültige E-Mail-Adresse"
			},
			"integerRangeFormatted": "Integer zwischen __min__ und __max__",
			"ipAddress": "Diese Adresse ist ungültig. Bitte verwenden Sie das Format x.x.x.x",
			"mobile": {
				"notValid": "Dies ist keine gültige Telefonnummer.",
				"selectCountry": "Bitte wählen Sie zuerst ein Land aus."
			},
			"numberRangeFormatted": "Zahl zwischen  __min__ und __max__",
			"passwords": {
				"notMatching": "Passwörter stimmen nicht überein",
				"tooLong": "Passwörter dürfen nicht länger als vierzehn Zeichen sein",
				"tooShort": "Passwörter müssen mindestens sechs Zeichen lang sein",
				"tooSimple": "Dieses Passwort ist zu einfach"
			},
			"postcode": {
				"notValid": "Ungültige Postleitzahl"
			},
			"wordsOnly": "Dieses Feld unterstützt nur Buchstaben (keine Ziffern).",
			"zip": {
				"notValid": "Diese Postleitzahl ist ungültig. Es sollte eine bis zu 9-stellige Nummer sein."
			}
		}
	},
	"dashboard": {
		"addGateway": "Neues Gateway hinzufügen",
		"header": {
			"addAPhoto": "Foto hinzufügen",
			"cancelScan": "Scan abbrechen?",
			"choosePhoto": "Foto aus dem Verzeichnis auswählen",
			"scanComplete": "Scan abgeschlossen",
			"scanMyHome": "Mein Heim scannen",
			"scanned": "gescannt",
			"scanning": "Es wird gescannt...",
			"takeAPhoto": "Foto machen"
		},
		"welcomeTile": {
			"description": "Über das Dashboard können Sie Ihre Geräte auf einen Blick sehen und verwalten. Heften Sie Ihre Geräte, eine OneTouch-Funktion und mehr auf Ihr Dashboard - für kinderleichtes Verwalten Ihres Heims über einen einzigen Bildschirm.",
			"title": "Willkommen auf Ihrem Dashboard!"
		}
	},
	"email": {
		"dynamic_body": {
			"title": "Hallo [[user_name]]"
		},
		"footer": {
			"legalText": "",
			"salusCompanyAddress": "850 Main St, Redwood City, CA 94063",
			"salusCompanyName": "Salus Controls, Inc",
			"salusCopyRightHTML": "&copy; Salus Inc. 2016",
			"salusWebSiteText": "www.salusinc.com",
			"salusWebSiteUrl": "http://www.salusinc.com"
		},
		"guest_signup_confirmation": {
			"buttonText": "Konto bestätigen",
			"contentBottomHTML": "<p>Willkommen bei Salus Connected Solutions!</p>",
			"contentTopHTML": "<p>[primary user] hat Ihnen Gastzugang zu seinem/ihren Salus-Konto gewährt. Bitte bestätigen Sie Ihr Gastkonto jetzt. Sie haben ab heute 30 Tage Zeit, es zu bestätigen.</p>",
			"emailSubject": "Bitte bestätigen Sie Ihren Salus-Besucherzugang",
			"title": "Willkommen [[user_name]]!"
		},
		"password_reset": {
			"buttonText": "Passwort zurücksetzen",
			"contentBottomHTML": "<p>Wenn Sie diese Zurücksetzung nicht angefordert haben oder nicht mehr benötigen, ignorieren Sie einfach diese Nachricht; Sie müssen nichts weiter tun.</p><p>Probleme oder brauchen Sie Hilfe? Auf unseren Kundendienstseiten finden Sie nützliche Informationen.</p><p>Ihr Salus Connected Solution Kundendienstteam</p>",
			"contentTopHTML": "<p>Wir haben Ihre Anfrage zur Zurücksetzung des Passworts erhalten. Bitte setzen Sie Ihr Passwort jetzt zurück. Ihre Anfrage wird in 6 Stunden ungültig und dieser Link ist nur einmal verwendbar.</p>",
			"emailSubject": "Ihre Zurücksetzungsanfrage",
			"title": "Hallo [[user_name]]"
		},
		"resource_share": {
			"emailBodyHTML": "[[share_owner_user_name]] hat Ihnen [[share_operation]]-Zugang zu [[share_resource_name]] mit dem Idenitfikationsnamen [[share_resource_id]] gewährt.",
			"emailSubject": "[[share_owner_user_name]] hat Ihnen [[share_operation]]-Zugang zu [[share_resource_name]] mit dem Identifikationsnamen [[share_resource_id]] gewährt.",
			"title": "Hallo [[share_target_user_name]]"
		},
		"signup_confirmation": {
			"buttonText": "Konto bestätigen",
			"contentBottomHTML": "",
			"contentTopHTML": "<p>Danke, dass Sie Ihr Profil erstellt haben. Bitte bestätigen Sie Ihr Konto jetzt. Sie haben ab heute 30 Tage Zeit, es zu bestätigen.</p><p>Sobald Ihr Konto bestätigt ist, führen wir Sie Schritt für Schritt durch den weitereb Einrichtungsvorgang.</p><p>Welcome to the Salus Connected Solutions!</p>",
			"emailSubject": "Bitte bestätigen Sie Ihr Salus-Konto",
			"title": "Willkommen [[user_name]]!"
		},
		"trigger_app": {
			"title": "Hallo [[user_name]]"
		}
	},
	"equipment": {
		"common": {
			"firmVer": "Firmware-Version:",
			"mac": "Mac-Adresse:",
			"model": "Modell:",
			"serialNum": "Seriennummer:"
		},
		"delete": {
			"equipmentDontWorry": "Keine Sorge, Sie können sie später jederzeit wieder hinzufügen.",
			"gatewayWarning": "Jegliche mit dem Gateway zusammenhängenden Dienste werden jedoch ebenfalls gelöscht.",
			"removeEquipment": "Anlage entfernen",
			"removeEquipmentFormatted": "__modelTypeName__ entfernen",
			"removeSharedEquipmentFormatted": "Geteiltes/n __modelTypeName__ entfernen",
			"sharesDontWorry": "Keine Sorge, Sie können sie später jederzeit wieder hinzufügen.",
			"warning": "Sie entfernen gerade __product_name__"
		},
		"dialog": {
			"body": "Wählen Sie aus den folgenden Optionen aus:",
			"changeAllDevicesFormatted": "Sämtliche __modelTypeName__-Geräte ändern",
			"changeThisDevice": "Nur dieses eine ändern",
			"checkboxDoNotShowAgain": "Nicht mehr anzeigen",
			"titleFormatted": "Sie ändern gerade die Einstellungen eines einzelnen __modelTypeName__"
		},
		"error": {
			"deviceOffline": "Das Gerät ist offline",
			"eMeterGraphError": "Beim Laden des Grafs ist ein Problem aufgetreten. Klicken Sie hier, um erneut zu laden",
			"syncError": "Eigenschaften zur Synchronisierung von __device__ sind gescheitert.",
			"tryAgain": "Bitte prüfen Sie den Betriebsstatus Ihres Geräts und versuchen Sie es später erneut."
		},
		"gateway": {
			"address": {
				"addressLabel": "Adresse",
				"cityLabel": "Stadt",
				"header": "Adresse, an der Ihre Anlage eingerichtet ist",
				"postcodeLabel": "Postleitzahl",
				"stateLabel": "Staat/Bundesland",
				"zipLabel": "Postleitzahl"
			},
			"deviceInputLabel": "Name des Gateways",
			"deviceSerialNumber": "Seriennummer des Gateways",
			"error": {
				"invalidDeviceSerialNumber": "Gateway wurde nicht gefunden. Bitte versuchen Sie, den Knopf auf dem Gateway zu drücken, und klicken Sie auf 'Erneut suchen'.",
				"registrationFailedNoNodes": "Gateway-Konfigurierung fehlgeschlagen. Versuchen Sie es in zwei Minuten erneut.",
				"registrationFailedUnknown": "Gateway-Registrierung fehlgeschlagen. Bitte versuchen Sie es erneut.",
				"registrationTimeout": "Das Anmeldefenster ist abgelaufen. Drücken Sie bitte den Knopf auf dem Gateway erneut."
			},
			"header": "Aktivieren Sie Ihr Gateway",
			"instruction": "Wenn das LED-Licht Ihres Gatway blau aufleuchtet, klicken Sie  light is solid blue, click the \"Search for Gateway\" button below. The gateway serial number should populate automatically for you.",
			"searchButton": "Gateway suchen",
			"subheader": "Vergewissern Sie sich, dass Ihr Gateway per Ethernet-Kabel mit dem Modem verbunden ist.",
			"submitButton": "Mein Gateway aktivieren"
		},
		"history": {
			"headers": {
				"date": "Datum",
				"event": "Ereignis",
				"time": "Zeit",
				"user": "Nutzer"
			},
			"title": "Aktivitätenverlauf"
		},
		"information": {
			"headers": {
				"connection": "Verbunden",
				"dsn": "Seriennummer",
				"firmware": "Firmware Version",
				"mac": "MAC-Adresse",
				"oem": "Modell",
				"version": "Softwareversion"
			},
			"title": "Information"
		},
		"it600Warnings": {
			"Error01": "Fehler01: Mit Thermostat verbundenes Thermostatventil Hardwareproblem",
			"Error02": "Fehler02: Thermostat Bodensenor überhitzt sich",
			"Error03": "Fehler03: Thermostat Bodensensor offen",
			"Error04": "Fehler04: Thermostat Bodensensor Kurzschluss",
			"Error05": "Fehler05: Thermostat hat Verbindung mit Koordinator verloren",
			"Error06": "Fehler06: Thermostat hat Verbindung mit Kabelzentrale verloren",
			"Error07": "Fehler07: Thermostat hat Verbindung mit Thermostatventil verloren",
			"Error08": "Fehler08: Thermostat hat Verbindung mit Empfänger 1 verloren",
			"Error09": "Fehler08: Thermostat hat Verbindung mit Empfänger 2 verloren",
			"Error21": "Fehler21: Mit Thermostat verbundenes Thermostatventil hat Verbindung mit Koordinator verloren",
			"Error22": "Fehler22: Mit Thermostat verbundenes Thermostatventil - Batteriestand niedrig",
			"Error23": "Fehler23: Thermostat erhält Meldung von unverbundenem Thermostatventil oder Thermostatventil erhält Meldung von unverbundenem Thermostat",
			"Error24": "Fehler24: Thermostat vom Kabelzentrum nicht angenommen",
			"Error25": "Fehler25: Thermostat hat übergeordnete Verbindung verloren",
			"Error30": "Fehler30: Mit Thermostat verbundenes Thermostatventil hat Problem mit Getriebe",
			"Error31": "Fehler31: Mit Thermostat verbundenes Thermostatventil hat Problem mit Anpassung",
			"Error32": "Fehler32: Batteriestand des Thermostats niedrig",
			"modal": {
				"title": "IT600 derzeitige Fehler"
			}
		},
		"myEquipment": {
			"categories": {
				"noEquipment": "Sie haben keine solche Anlage.",
				"schedules": {
					"scheduleButton": "Zeitplan erstellen",
					"scheduleText": "Jetzt Zeitplan erstellen",
					"smartPlugs": "Zeitpläne regeln automatisch Ihre Smart Plugs nach Ihren bevorzugten Einstellungen. Verwenden Sie unsere empfohlenen Vorsteinstellungen oder richten Sie Ihre eigenen ein.",
					"thermostats": "Zeitpläne regeln automatisch die Heizung oder Kühlung ihres Thermostats nach Ihren bevorzugten Einstellungen. Verwenden Sie unsere empfohlenen Vorsteinstellungen oder richten Sie Ihre eigenen ein.",
					"waterHeaters": "SZeitpläne regeln automatisch Ihre Wasserheizer nach Ihren bevorzugten Einstellungen. Verwenden Sie unsere empfohlenen Vorsteinstellungen oder richten Sie Ihre eigenen ein."
				},
				"thermostats": {
					"createTsc": "Neue Einzelregelung anlegen",
					"individualControls": "Individuelle Regelungen",
					"singleControls": "Einzelregelung",
					"thermostatsIn": "Thermostate ein"
				},
				"title": "Kategorien",
				"types": {
					"carbonMonoxideDetectors": "Kohlenmonoxid-Melder",
					"doorMonitors": "Türwächter",
					"energyMeters": "Energiemesser",
					"gateways": "Gateways",
					"smartPlugs": "Smart Plugs",
					"smokeDetectors": "Rauchmelder",
					"thermostats": "Thermostate",
					"trvs": "Thermostatventile",
					"waterHeaters": "Wasserheizer",
					"windowMonitors": "Fensterwächter",
					"wirelessUncontrollableDevices": "Drahtlose, nicht regelbare Geräte"
				}
			},
			"groups": {
				"addNewEquipment": "Neue Anlage hinzufügen",
				"addNewGroup": "Neue Gruppe hinzufügen",
				"groupEquipment": "Anlagen gruppieren",
				"success": "Erfolgreich eingerichtet!",
				"successMessage": "Ihre Einzelregelung für das Thermostat wurde erstellt.",
				"title": "Gruppen",
				"ungrouped": "Ungruppierte Anlagen"
			},
			"newGroup": {
				"createError": "Bei der Erstellung Ihrer Gruppe ist ein Problem aufgetreten. Bitte versuchen Sie es erneut",
				"delete": {
					"linkText": "Gruppe löschen",
					"modalLabel": "Sie löschen gerade eine Gruppe",
					"warning": "Keine Sorge, die Geräte verbleiben in Ihrem Konto und Sie können die Gruppe jederzeit wiederherstellen."
				},
				"deviceError": "Gruppen müssen mindestens ein Gerät beinhalten",
				"empty": "Leider haben Sie keine Geräte, die angezeigt werden könnten!",
				"nameError": "Bitte geben Sie einen gültigen Gruppennamen ein",
				"newGroupText": "Name der Gerätegruppe",
				"newGroupTitle": "Benennen Sie Ihre Gruppe",
				"pageTitle": "Anlagen werden gruppiert",
				"selectEquipmentTitle": "Wählen Sie die Anlagen aus, die Sie dieser Gruppe beifügen möchten",
				"updateError": "Beim Aktualisieren Ihrer Gruppe ist ein Problem aufgetreten. Bitte versuchen Sie es erneut."
			},
			"subHeader": "Organisieren Sie Ihre Anlage, wie Sie möchten - nach Kategorie, Standort oder nach Belieben.",
			"title": "Meine Anlagen"
		},
		"names": {
			"carbonMonoxideDetector": "CO-Melder",
			"coordinatorDevice": "Koordinator-Gerät",
			"doorMonitor": "Türwächter",
			"energyMeter": "Energiemesser",
			"gateway": "Gateway",
			"gatewayNode": "Gateway-Zentrale",
			"generic": "Anlagen",
			"iT600BoilerReceiver": "Boiler-Empfänger",
			"iT600Thermostat": "IT600 Thermostat",
			"iT600Trv": "Thermostatventil",
			"iT600WiringCenter": "Kabelzentrale",
			"miniSmartPlug": "Smart Plug",
			"smartPlug": "Smart Plug",
			"smokeDetector": "Rauchmelder",
			"thermostat": "Thermostat",
			"waterHeater": "Wasserheizer",
			"windowMonitor": "Fensterwächter"
		},
		"oneTouch": {
			"automations": {
				"addNew": "Neue OneTouch-Funktion hinzufügen",
				"added": "OneTouch-Funktion hinzugefügt",
				"title": "OneTouch"
			},
			"create": {
				"criteriaSection": "Regeln einrichten",
				"defaultRuleName": "Neue OneTouch-Regel __ruleNum__",
				"include": "Diese OneTouch-Funktion in einem Status einschließen?",
				"missingCriteriaError": "Bitte wählen Sie mindestens eine Aktion aus",
				"nameSection": "Benennen Sie diese OneTouch-Funktion",
				"nameTextbox": "z.B. Terrassenbeleuchtung",
				"pin": {
					"pinText": "Anheften",
					"subtitle": "Möchten Sie diese OneTouch-Funktion an Ihr Dashboard heften?",
					"unpinText": "Nicht anheften"
				},
				"subtitle": "",
				"title": "Neue OneTouch-Funktion erstellen"
			},
			"criteria": {
				"andWhen": "und wenn",
				"buttonPress": "'Jetzt Starten' gedrückt wird",
				"dayOfWeek": {
					"everyday": "Jeden Tag",
					"prefix": "Wochentag __val__ ist",
					"weekdays": "An Werktagen",
					"weekends": "An Wochenenden"
				},
				"doThis": "folgende Aktion vornehmen",
				"orWhen": "oder wenn",
				"propVal": {
					"doorWindow": {
						"closed": "geschlossen",
						"open": "offen"
					},
					"generic": " __device_name__ auf __val__ stellen",
					"is": " __val__ ist",
					"isBetween": "zwischen __lower_val__ und __upper_val__ liegt",
					"isGreaterThan": " größer als __val__ ist",
					"isLessThan": "kleiner als __val__ ist",
					"sensor": {
						"alerting": "wird gemeldet"
					},
					"smartPlug": {
						"action": " __device_name__ auf __val__ stellen",
						"off": "AUS",
						"on": "EIN"
					},
					"thermostat": {
						"action": "__device_name__ auf __val__ stellen",
						"auto": "Auto-Modus",
						"cooling": "Kühlmodus",
						"decreaseBy": "um __val__ Grad senken",
						"degrees": "Grad",
						"fanAuto": "Lüftung auf Auto",
						"fanOn": "Lüftung ein",
						"heating": "Heizmodus",
						"increaseBy": "um __val__ Grad erhöhen",
						"off": "Aus"
					},
					"waterHeater": {
						"action": "Gerät __device_name__ auf __val__ stellen",
						"boost": "Verstärken",
						"continuous": "dauerhaft",
						"off": "aus",
						"schedule": "nach Zeitplan"
					}
				},
				"sendAlert": {
					"email": {
						"prefix": "Eine E-Mail an __val__ senden",
						"sendEmail": "Eine E-Mail senden"
					},
					"sms": {
						"prefix": "Eine SMS an __val__ senden",
						"sendSMS": "SMS senden"
					}
				},
				"sorry": "Tut uns leid",
				"thenDoThis": "dann folgende Aktion vornehmen",
				"thenDoThisLater": "dann folgende Aktion später vornehmen",
				"timeOfDay": {
					"prefix": "Uhrzeit ist __val__",
					"suffix": "auf __val__"
				},
				"timer": {
					"baseTime": "__property_actions__ in __time_string__",
					"combined": "__hour_string__ und __min_string__",
					"hour": {
						"hour": "__time__ Stunde",
						"hours": "__time__ Stunden"
					},
					"min": {
						"minute": "__time__ Minute",
						"minutes": "__time__ Minuten"
					},
					"now": "__property_actions__ jetzt"
				},
				"unsupported": "Ihre Regelkriterien werden derzeit nicht unterstützt",
				"when": "wenn"
			},
			"details": {
				"addToDash": "Zum Dashboard hinzufügen:",
				"delete": {
					"modalText": "Die OneTouch-Funktion läuft nicht mehr und wird aus Ihren Mein-Status-Einstellungen entfernt'.",
					"oneTouch": "Sie löschen gerade __one_touch__"
				},
				"includedIn": "Gehörig zu:",
				"runNow": "Jetzt starten"
			},
			"edit": {
				"title": "OneTouch-Funktion bearbeiten"
			},
			"emails": {
				"subjectFormatted": "OneTouch-Regel __ruleName__ wurde aktiviert",
				"usernameFormatted": "__firstname__ __lastname__"
			},
			"menus": {
				"doThis": {
					"header": "FOLGENDE AKTION VORNEHMEN",
					"notifyMe": {
						"contactMenu": {
							"addNew": "Neu hinzufügen",
							"addNewContact": "Neuen Kontakt hinzufügen",
							"countryCode": "Land",
							"email": "E-Mail-Adresse",
							"emailConfirm": "Bitte E-Mail-Adresse bestätigen",
							"emailOptional": "E-Mail-Adresse (optional)",
							"mobilePhone": "Mobilfunknummer",
							"mobilePhoneOptional": "Mobilfunknummer (optional)",
							"name": "Name des Kontakts",
							"select": "Wie möchten Sie und Ihre Gäste Meldungen erhalten?"
						},
						"email": "Per E-Mail",
						"emailHeader": "E-Mail",
						"sms": "Per SMS",
						"smsHeader": "SMS"
					},
					"propertyChange": {
						"changeFanMode": "Lüftungsmodus ändern",
						"changeMode": "Modus ändern",
						"changeSetTemp": "Eingestellten Wert ändern",
						"exactTemp": "Genaue Temperatur",
						"fanAuto": "Auto",
						"fanOn": "Lüftung ein",
						"increaseDecrease": "Erhöhen oder senken um",
						"smartPlugOff": "Smart Plug AUSschalten",
						"smartPlugOn": "Smart Plug EINschalten",
						"waterHeater": {
							"boost": "Auf Verstärkermodus schalten",
							"continuous": "Auf Dauerbetrieb schalten",
							"off": "Ausschalten",
							"schedule": "Auf Zeitplan schalten"
						}
					},
					"root": {
						"notifyMe": "Benachrichtigung an mich senden",
						"propertyChange": "Eine Geräteeigenschaft ändern"
					}
				},
				"thenDoThis": {
					"header": "DANN SPÄTER FOLGENDE AKTION VORNEHMEN",
					"root": {
						"stateOfEquipment": "Status der Anlagen",
						"undo": "Rückgängig machen"
					},
					"timer": {
						"changeCheckBox": "Dem Nutzer erlauben, die Dauer zu ändern",
						"hours": "Um so viele Stunden",
						"minutes": "Um so viele Minuten",
						"title": "Wie viel später soll dies erfolgen?"
					},
					"undo": {
						"title": "Diese OneTouch-Funktion ändern?"
					}
				},
				"when": {
					"dayOfWeek": {
						"finalMenu": "Wählen Sie die Tage aus, an denen Ihre OneTouch-Funktion laufen soll.",
						"picker": "Wochentag auswählen",
						"weekday": "An Werktagen",
						"weekend": "An Wochenenden"
					},
					"header": "WENN",
					"pressAButton": {
						"button": "Regel wird durch Knopfdruck aktiv"
					},
					"root": {
						"dayOfWeek": "Wochentag",
						"pressAButton": "ich eine Schaltfläche drücke",
						"stateOfEquipment": "Status der Anlagen",
						"timeOfDay": "Uhrzeit",
						"weather": "Wetter"
					},
					"stateOfEquipment": {
						"doorWindow": {
							"closed": "geschlossen ist",
							"open": "geöffnet ist"
						},
						"equipmentCategory": "Anlagekategorien",
						"equipmentGroup": "Anlagegruppen",
						"individualEquipment": "Einzelne Anlagen",
						"sensor": {
							"alert": "Sensor meldet"
						},
						"smartPlug": {
							"off": "Smart Plug ist AUS",
							"on": "Smart Plug is EIN"
						},
						"thermostats": {
							"above": "Über",
							"below": "Unter",
							"between": "Zwischen",
							"enterValue": "Temperatur eingeben",
							"selectAboveValue": "Oberen Temperatuwert auswählen",
							"selectBelowValue": "Unteren Temperaturwert auswählen"
						},
						"waterHeater": {
							"boost": "Befindet sich im Verstärkermodus",
							"continuous": "befindet sich im Dauerbetrieb",
							"off": "ist aus",
							"schedule": "läuft laut Zeitplan"
						}
					},
					"timeOfDay": {
						"endTime": "Endzeitpunkt",
						"endTimeError": "Endzeitpunkt muss nach der Startzeit liegen",
						"formatError": "Bitte geben Sie im korrekten Format ein",
						"specify": "Zeit einstellen",
						"startTime": "Startzeit",
						"sunriseSunset": "Sonnenaufgang / Sonnenuntergang",
						"to": "bis"
					},
					"weather": {
						"current": "Derzeitige Temperatur",
						"forecast": "Wettervorhersage"
					}
				}
			},
			"recommended": {
				"addRecommended": "OneTouch-Funktion hinzufügen",
				"modal": {
					"titleFormatted": "OneTouch-Regel '__ruleName__' anwenden"
				},
				"smartPlug": {
					"12am": {
						"description": "Einen Smart Plug um Mitternacht ausschalten",
						"name": "Um Mitternacht ausschalten",
						"nameFormatted": "Um Mitternacht ausschalten: __name__"
					},
					"oneHour": {
						"description": "Einen Smart Plug für 1 Stunde ausschalten",
						"name": "Timer für eine Stunde",
						"nameFormatted": "Timer für eine Stunde: __name__"
					},
					"title": "Smart Plugs",
					"turnOff": {
						"description": "Einen Smart Plug sofort ausschalten",
						"name": "Ausschalten",
						"nameFormatted": "Ausschalten: __name__"
					}
				},
				"thermostat": {
					"title": "Thermostate",
					"turnOff": {
						"description": "Ein Thermostat sofort ausschalten",
						"name": "Thermostat ausschalten",
						"nameFormatted": "Thermostat ausschalten: __name__"
					}
				},
				"title": "Empfohlen",
				"waterHeater": {
					"boostFor2": {
						"description": "Zwei Stunden lang auf Verstärkermodus schalten",
						"name": "Zwei Stunden lang verstärken",
						"nameFormatted": "Für zwei Stunden verstärken: __name__"
					},
					"title": "Wasserheizer"
				}
			}
		},
		"property": {
			"names": {
				"coolingSetpoint_x100": "Sollwert für Kühlung",
				"heatingControl": "Heizungsregelung",
				"temperatureOffset": "Zimmertemperatur-Ausgleich",
				"cylinderConnection": "Zylinderverbindung",
				"oUTSensorProbe": "Sensorsonde",
				"oUTSensorType": "Sensorsonde als Luft- oder Bodensensor verwendet",
				"coolingControl": "Kühlregelung",
				"actuatorType": "Art des Reglers",
				"valveProtection": "Ventilschutz",
				"frostSetpoint_x100": "Solltemperaturwert für Frost",
				"floorCoolingMin_x100": "Bodensensor-Schwelle für Kühlung",
				"floorHeatingMax_x100": "Obere Temperaturschwelle für Bodensensor",
				"floorHeatingMin_x100": "Untere Temperaturschwelle für Bodensensor",
				"heatingSetpoint_x100": "Sollwert für Heizung",
				"holdDuration": "Haltedauer (in Minuten)",
				"lEDMode": "LED-Modus",
				"lockKey": "Möchten Sie die Sperreinstellungen auf Ihrem Thermostat ändern?",
				"keyLock": "Möchten Sie die Sperreinstellungen auf Ihrem Thermostat ändern?",
				"maxHeatSetpoint_x100": "Grenzwert für Heizung setzen",
				"minCoolSetpoint_x100": "Grenzwert für Kühlung setzen",
				"networkLANIP": "IP-Adresse",
				"networkLANMode": "Netzwerk LAN-Modus",
				"networkLANRouterAddr": "Router",
				"networkLANSubnet": "Subnetzmaske",
				"networkPriDNS": "Primärer DNS",
				"networkSecDNS": "Sekundärer DNS",
				"shutOffDisplay": "LCD-Anzeige ausschalten",
				"systemMode": "Systemmodus",
				"temperatureDisplayMode": "Fahrenheit ODER Celsius",
				"timeFormat24Hour": "Stundenformat"
			},
			"values": {
				"actuatorClosed": "Normalerweise geschlossen",
				"actuatorOpen": "Normalerweise offen",
				"alwaysOn": "Immer EIN",
				"auto": "Auto",
				"celsius": "Celsius",
				"cool": "Kühlen",
				"cylinderConnected": "Zylindersonde ist angeschlossen",
				"cylinderNotConnected": "Zylindersonde ist nicht angeschlossen",
				"disabled": "Deaktiviert",
				"dynamic": "Dynamisch",
				"emergencyHeating": "Notheizung",
				"enabled": "Aktiviert",
				"fahrenheit": "Fahrenheit",
				"heat": "Heizen",
				"hour12": "12:00",
				"hour24": "24:00",
				"locked": "Ja, sperren",
				"longCycle": "+/- 0,5 Grad Celsius",
				"midCyle": "+/- 0,25 Grad Celsius",
				"no": "Nein",
				"numberInCFormatted": "__number__ Grad Celsius",
				"numberInFFormatted": "__number__ Grad Fahrenheit",
				"off": "Aus",
				"offWhenIdle": "Aus wenn im Leerlauf",
				"on": "Ein",
				"sensorAir": "Luftsensor",
				"sensorConnected": "Sensorsonde ist angeschlossen",
				"sensorDewPointConnected": "Taupunkt-Sensor ist angeschlossen",
				"sensorFloor": "Bodensensor",
				"sensorNotConnected": "Kein Sensor angeschlossen",
				"shortCyle": "+/- 0",
				"static": "Statisch",
				"turnOff": "Ausschalten",
				"turnOn": "Einschalten",
				"unlocked": "Nein, nicht sperren",
				"yes": "Ja"
			}
		},
		"provisioning": {
			"boilerReceiver": "iT600 Boiler-Empfänger",
			"coMonitor": "Kohlenmonoxid-Melder",
			"coordinator": "Koordinator-Gerät",
			"device": "Von Salus kontrolliertes Gerät",
			"doorSensor": "Türsensor",
			"energyMeter": "Energiemesser für das ganze Haus",
			"gateway": "Salus Universal-Gateway",
			"gatewayNode": "Gateway-Zentrale",
			"it530Thermostat": "iT530 Thermostat",
			"it600Thermostat": "iT600 Thermostat",
			"namedEnergyMonitor": "__name__s Energiemonitor",
			"optimaThermostat": "Optima Thermostat",
			"smartPlug": "Smart Plug",
			"smokeAlarm": "Rauchmelder",
			"trv": "iT600 Thermostatventil",
			"windowSensor": "Fenstersensor",
			"wiringCenter": "iT600 Kabelzentrum"
		},
		"schedule": {
			"create": {
				"description": "Zeitpläne laufen automatisch mit den von Ihnen bevorzugten Einstellungen.",
				"no": "Nicht jetzt",
				"question": "Möchten Sie jetzt einen Zeitplan für diese Geräte erstellen?",
				"yes": "Ja, Zeitplan erstellen"
			},
			"widget": {
				"title": "Zeitplan"
			}
		},
		"settings": {
			"empty": "Leider haben Sie keine Einstellungen, die angezeigt werden könnten!",
			"networkSettingsSaveConfirmSecondary": "Möchten Sie Ihre Netzwerkeinstellungen speichern?",
			"networksSettingsSaveConfirmPrimary": "Sie haben Ihre Netzwerkeinstellungen geändert. Zur Speicherung müssen Sie eine Minute lang auf dieser Seite bleiben.",
			"networksSettingsSavingPrimary": "Wir speichern Ihre Netzwerkeinstellungen. Bitte bleiben Sie auf der Seite.",
			"networksSettingsSavingSecondary": "Dieser Prozess dauert etwa 1 Minute.",
			"title": "Einstellungen"
		},
		"stackedBarGraph": {
			"time": "Zeit",
			"watts": "Wattzahl"
		},
		"status": {
			"alias": "Name der Geräte",
			"battery": {
				"charged": "__val__% geladen"
			},
			"monitoring": "Es wird überwacht",
			"thermostat": {
				"lock": "Thermostat gesperrt",
				"unlock": "Thermostat freigegeben"
			}
		},
		"thermostat": {
			"frostPointModal": {
				"header": "Klima- und HeizGerät ausschalten",
				"labels": {
					"buttonCancel": "Abbrechen",
					"buttonTurnOff": "Klima- und Heizanlage ausschalten",
					"chooseFrostPoint": "Einen Frostpunkt auswählen",
					"radioNo": "Nein, keinen Frostsollwert einstellen",
					"radioYes": "Ja, Frostsollwert einstellen auf"
				},
				"subHeader": "Möchten Sie einen Frost-Solltemperaturwert einstellen?",
				"tempModeC": "__number__ &#8451;",
				"tempModeF": "__number__ &#8457;"
			},
			"holdPointModal": {
				"header": "Die eingestellte Temperatur halten",
				"holdTitle": "Halten",
				"labels": {
					"btnCancel": "Abbrechen",
					"btnOk": "Ok",
					"radioScheduleChange": "Bis zur nächsten im Zeitplan vorgesehenen Änderung",
					"radioUntilChange": "Bis ich die eingestellte Temperatur ändere"
				}
			},
			"menus": {
				"modeLabels": {
					"auto": "Auto",
					"cooling": "Kühlen",
					"fan": "Lüftung",
					"fanOn": "Fan On",
					"followSchedule": "Dem Zeitplan folgen",
					"heating": "Heizen",
					"off": "Aus",
					"permanentHold": "Dauerhaft halten",
					"systemOff": "System Aus",
					"temporaryHold": "Vorübergehend halten"
				}
			}
		},
		"thermostatSingleControl": {
			"createPage": {
				"addButtonText": "Neue Einzelregelung hinzufügen",
				"bottomBlurb": "Sie können auch nach Einrichtung noch Änderungen an dieser Einzelregelung vornehmen.",
				"delete": "Einzelregelung löschen",
				"deviceError": "Es muss mindestens ein Gerät mit der Einzelregelung des Thermostats verbunden sein",
				"error": "Beim Erstellen der Einzelregelung des Thermostats ist ein Fehler aufgetreten. Bitte versuchen Sie es erneut",
				"individualControls": "Individuelle Regelungen",
				"nameError": "Bitte geben Sie für Ihre Thermostat-Einzelregelung einen gültigen Namen ein",
				"newTSCSectionTitle": "Benennen Sie diese Einzelregelung",
				"newTSCText": "z.B. Schlafzimmer oben",
				"thermostatsSectionTitle": "Wählen Sie die Thermostate aus, die Sie mit dieser Einzelreglung verbinden möchten.",
				"titleExisting": "Einzelregelungen",
				"titleNoExisting": "Eine Einzelregelung erstellen",
				"typeError": "In einer Thermostat-Einzelregelung können keine verschiedenen Thermostatmodelle gemischt werden"
			},
			"initialSetup": {
				"description": "Die Änderung einer Regelung können Sie auf mehrere anwenden. Lorem ipsum dolor sit amet, consectetur adipiscing elit. Sed gravida bibendum dictum. Maecenas nec eleifend dui. Suspendisse mollis purus scelerisque maximus ultricies. Nulla a metus arcu. Interdum et malesuada fames ac ante ipsum",
				"prompt": "Möchten Sie eine Einzelregelung für mehrere Thermostate erstellen?",
				"title": "Eine Einzelregelung erstellen"
			},
			"title": "Thermostat Einzelregelung"
		},
		"trv": {
			"add": "Add TRV",
			"modal": {
				"title": "Wählen Sie Termostatventil(e) für __name__ aus",
				"tooMany": "Sie können bis zu 6 Thermostatventile mit einem Thermostat verbinden"
			},
			"noTrvs": "Derzeit sind mit diesem Gerät keine Thermostatventile verbunden",
			"title": "Thermostatventile auf diesem Thermostat"
		},
		"usage": {
			"interactiveMode": "Interaktiver Modus",
			"title": "Verbrauch"
		}
	},
	"error404": {
		"backToDash": "Zurück zu Home",
		"message": "Die von Ihnen gesuchte Seite wurde nicht gefunden.",
		"title": "404-Fehler"
	},
	"errors": {
		"responseText": "Antworttext:",
		"serviceEndpoint": "Service-Endpunkt:",
		"siteMessage": "Leider ist ein Fehler aufgetreten. Bitte klicken Sie hier, um es erneut zu versuchen!",
		"statusCode": "Status-Code:",
		"statusText": "Status-Text:"
	},
	"key": "Verbraucher-en",
	"login": {
		"changePasswordWithToken": {
			"button": "Neues Passwort speichern",
			"confirmPasswordLabel": "Neues Passwort bestätigen",
			"message": "Neues Passwort erstellen",
			"newPasswordLabel": "Neues Passwort",
			"resetPasswordTokenLabel": "Passwort-Token zurücksetzen"
		},
		"confirm": {
			"emailSent": "Wir senden Ihnen jetzt eine E-Mail zur Bestätigung Ihres Kontos.",
			"headline": "Fast geschafft",
			"ready": "Sind Sie bereit, sich einzuloggen?",
			"resend": "Ihr Konto ist fast bestätigt, __user_name__!",
			"thanks": "Danke für die Anmeldung, __user_name__!",
			"trustedSender": "Fügen Sie email@salus.com zu ihren sicheren E-Mail-Kontakten hinzu, damit Sie aktuelle Meldungen von uns auch erhalten."
		},
		"forgotPassword": {
			"backToSignInLinkLabel": "Zurück zum Login",
			"button": "vorübergehendes Token e-mailen",
			"inputLabel": "E-Mail für dieses Konto",
			"message": "Haben Sie Ihr Passwort vergessen?"
		},
		"forgotPasswordConfirmation": {
			"button": "Zurück zum Login",
			"message": "Wir haben Ihnen eine Anleitung zum Zurücksetzen Ihres Passworts geschickt. Bitte checken Sie Ihre E-Mails.",
			"title": "Passwort vergessen"
		},
		"headline": "Willkommen bei \nSalus",
		"login": {
			"accountLink": "Konto einrichten",
			"accountMessage": "Sie haben noch kein Konto?",
			"button": "Einloggen",
			"emailLabel": "E-Mail",
			"error": {
				"accountLocked": "Aufgrund fehlgeschlagener Anmeldeversuche wurde Ihr Konto gesperrt. Melden Sie sich in 30 Minuten wieder an.",
				"invalidLanguage": "Bitte wählen Sie eine Sprache aus",
				"invalidUsernamePassword": "Ihr Passwort oder E-Mail-Addresse sind inkorrekt. Bitte versuchen Sie es erneut."
			},
			"forgotPassword": "Passwort vergessen?",
			"keepLoggedIn": "Angemeldet bleiben",
			"passwordLabel": "Passwort",
			"resendConfirmationEmail": "Bestätigungs-E-Mail erneut senden",
			"siloMessage": {
				"eu": "Auf die US-App umschalten",
				"us": "Auf die EU-App umschalten"
			}
		},
		"pinpad": {
			"authInvalid": "Der von Ihnen eingegebene Pin ist ungültig",
			"authSuccess": "Pin bestätigt",
			"pinRemoveFail": "Pin konnte nicht entfernt werden",
			"pinRemoved": "Pin erfolgreich entfernt",
			"setFail": "Pin konnte nicht eingerichtet werden",
			"setSuccess": "Pin erfolgreich eingerichtet"
		},
		"resetPassword": {
			"changeFailed": "Ihr Versuch, das Passwort zu ändern, ist fehlgeschlagen",
			"requestNewToken": "Unter 'Passwort vergessen' können Sie ein neues Token anfordern",
			"title": "Passwortänderung fehlgeschlagen.",
			"tokensExpire": "Tokens sind nur jeweils 6 Stunden gültig",
			"tryAgain": "Falls das Token falsch geschrieben wurde, können Sie es erneut versuchen"
		},
		"sendConfirmationEmail": {
			"backToSignInLinkLabel": "Zurück zum Login",
			"button": "Bestätigungs-E-Mail erneut senden",
			"message": "Konto-Bestätigung"
		},
		"signInWithToken": {
			"button": "Gerät zuordnen",
			"error": {
				"invalidToken": "login.signInWithToken.error.invalidToken"
			},
			"inputLabel": "Aktivierungscode",
			"message": "Dieses mobile Endgerät mit Ihrem Konto verbinden"
		},
		"welcome": {
			"accountLink": "Anmelden",
			"accountMessage": "Haben Sie bereits ein Konto?",
			"button": "Registrieren",
			"message": "Beginnen wir."
		}
	},
	"messageCenter": {
		"alerts": {
			"alarmSounding": "Alarm erklingt jetzt",
			"alert": "Warnmeldung",
			"criteria": "Kriterien für Warnmeldungen",
			"currentStatus": "Derzeitiger Status",
			"dateTime": "Datum & Uhrzeit",
			"details": "Details",
			"equipment": "Anlagen",
			"subHeader": "Meldungen lorem ipsum dolor sit amet alipsis diam.",
			"title": "Meldungen"
		},
		"notifications": {
			"subHeader": "Benachrichtigungen in den vergangenen 90 Tagen",
			"title": "Benachrichtigungen"
		},
		"title": "Benachrichtigungs-Center"
	},
	"missingKey": "##############################",
	"myStatus": {
		"addNewGateway": "Neues Gateway hinzufügen",
		"addNewStatus": "Neuen Status hinzufügen",
		"makeNewStatus": {
			"createNewOneTouch": "Neue OneTouch-Funktion für diesen Status hinzufügen",
			"delete": "Status löschen",
			"deleteWarning": "Diesen Status löschen?",
			"editName": {
				"name": "Name"
			},
			"invalidGateway": "Sie nutzen ein ungültiges Gateway. Bitte ändern Sie Ihr Gateway oder fügen Sie ein neues, gültiges Gateway hinzu.",
			"ruleView": {
				"run": "Aktivieren, wenn der Status einsetzt"
			}
		},
		"newStatus": {
			"createStatusTitle": "Neuen Status erstellen",
			"formFields": {
				"continue": "Weiter",
				"statusName": "Status-Name"
			},
			"giveStatusName": "Diesen Status benennen",
			"selectIcon": "Ein Symbol für Ihren Status auswählen",
			"selectIconInstructions1": "Wählen Sie ein Symbol von Ihrem IT600 und regeln Sie Ihren Status vom IT600 oder von der App aus.",
			"selectIconInstructions2": "Wählen Sie ein weiteres Symbol aus, um Ihren Status von der App aus zu regeln.",
			"showLessIcons": "Weniger Symbole anzeigen",
			"showMoreIcons": "Mehr Symbole anzeigen"
		},
		"newStatusAdded": "Neuer Status wurde hinzugefügt",
		"noGatewayMessage": "Es wurde kein Gateway erkannt. Bitte fügen Sie ein Gateway hinzu.",
		"title": "Mein Status"
	},
	"schedules": {
		"deviceTypes": {
			"smartPlug": "Smart Plugs",
			"thermostat": "Thermostate",
			"waterHeater": "Wasserheizer"
		},
		"edit": {
			"changeIndividualThermostat": {
				"no": "Nein, nur dieses eine",
				"subtitle": "Möchten sie sämtliche Thermostate derselben Bauart ändern?",
				"title": "Sie ändern gerade eine Einstellung an einem der Thermostate.",
				"yes": "Ja, Änderung an sämtlichen Thermostaten dieser Bauart vornehmen"
			},
			"changeSingleControl": {
				"changeGroup": {
					"no": "Nein, nicht jetzt",
					"subtitle": "Sind Sie sicher, dass Sie das jetzt vornehmen möchten?",
					"title": "Sie ändern gerade die Einstellungen sämtlicher Thermostate in Ihrer Einzelregelung",
					"yes": "Ja, Änderung vornehmen"
				},
				"changeSingle": {
					"changeJustThermostat": "Nur dieses Thermostat ändern",
					"changeSingleControl": "Sämtliche Thermostate in der Einzelregelung ändern",
					"subtitle": "Möchten Sie diese Änderung an allen Thermostaten in der Einzelregelung vornehmen?",
					"title": "Sie ändern die Einstellungen eines der Thermostate in Ihrer Einzelregelung"
				}
			},
			"modal": {
				"addNew": "Neue Einzelregelung hinzufügen",
				"deleteLabel": "Einzelregelung löschen",
				"duplicateTstatsErrorBody": "Bitte vergewissern Sie sich, dass dasselbe Thermostat nicht in mehr als einer Einzelregelung ausgewählt ist, dass sämtliche Einzelregelungen benannt sind und für jede mindestens ein Thermostat ausgewählt ist.",
				"duplicateTstatsErrorTitle": "Fehler: Eine oder mehrere Einzelregelungen konnten nicht gespeichert werden.",
				"emptyIndividualControls": "Keine individuellen Regelungen verfügbar",
				"emptySingleControls": "Keine Einzelregelungen verfügbar",
				"emptyThermostats": "Keine Thermostate verfügbar",
				"individualLabel": "Individuelle Regelungen",
				"nameLabel": "Name der Einzelregelung",
				"title": "Einzelregelungen für Thermostat ändern"
			},
			"previousScreen": "< Voreingestellte Zeitpläne",
			"thermostatList": {
				"emptyThermostats": "Keine Thermostate oder Einzelregelungen verfügbar"
			},
			"thermostatSettings": {
				"addInterval": "Intervall hinzufügen",
				"apply": "Zeitplan anwenden",
				"cancel": "Abbrechen",
				"description": "Lorem ipsum dolor sit amet, in molestie sententiae pro, an qui sint iuvaret officiis. Aperiri equidem ea vis, eam natum affert vituperata ex, nec ne constituam philosophia.",
				"start": "STARTZEIT",
				"temp": "TEMPERATUR"
			}
		},
		"emptyView": {
			"message": "You have no __type__ on this gateway. Please add __type__ to set schedules for them."
		},
		"presets": {
			"description": "Basierend auf gängigen Tagesabläufen haben wir drei Zeitpläne voreingestellt. Wählen Sie einen aus oder erstellen Sie Ihren eigenen.",
			"presetSchedules": {
				"createNew": {
					"description": "Richten Sie Ihre eigenen Thermostatzeitpläne ein, damit Ihr Heim ganz nach Ihren Wünschen funktioniert.",
					"title": "Eigenen Zeitplan erstellen"
				},
				"mostlyAway": {
					"description": "Für Menschen, die viel unterwegs und selten zu Hause sind.",
					"title": "Meistens außer Haus"
				},
				"mostlyHome": {
					"description": "Für Menschen, die mehr zu Hause als unterwegs sind.",
					"title": "Meistens zu Hause"
				},
				"workingWeek": {
					"description": "Für Haushalte, in denen die übliche Arbeitswoche - 9:00 bis 18:00 Uhr, Montags bis Freitags - gilt, Wochenenden werden zu Hause verbracht.",
					"title": "Übliche Arbeitswoche"
				}
			},
			"title": "Wählen Sie einen voreingestellten Zeitplan aus oder erstellen Sie Ihren eigenen"
		},
		"schedule": {
			"addInterval": "Intervall hinzufügen",
			"columnLabels": {
				"mode": "SYSTEMMODUS",
				"startTime": "STARTZEIT",
				"temperature": "TEMPERATUR"
			},
			"deleteInterval": "Intervall löschen",
			"newInterval": {
				"add": "Hinzufügen",
				"mode": {
					"cool": "Kühlen",
					"heat": "Heizen",
					"off": "Aus",
					"on": "Ein",
					"title": "Modus:"
				},
				"startTime": "Startzeit",
				"temperature": "Temperatur",
				"temperatureError": "Ungültige Temperatur. Bitte geben Sie eine Zahl zwischen __floor__ und __ceiling__ ein. Dezimalstellen müssen auf 0 oder 5 enden",
				"timeError": "Die eingegebene Zeit ist ungültig. Bitte geben Sie die Zeit in folgendem Format ein: hh:mm am/pm",
				"title": "Neues Intervall hinzufügen",
				"update": "Aktualisieren"
			},
			"noIntervals": "In diesem Zeitplan sind keine Intervalle vorhanden.",
			"weekConfigurations": {
				"MO-FR": "MO - FR",
				"MO-SU": "MO - SO",
				"SA-SU": "SA - SO"
			},
			"weekDropdown": {
				"daily": "Täglich",
				"fullWeek": "Meistens zu Hause / MO-SO",
				"workWeek": "Arbeitswoche / MO-FR und SA+SO"
			}
		},
		"smartPlug": {
			"title": "Smart-Plug-Zeitplan"
		},
		"thermostat": {
			"duplicateSchedule": {
				"description": "Auf welche(s) Thermostat(e) möchten Sie diesen Zeitplan noch anwenden?",
				"duplicate": "Duplizieren",
				"error": "Um einen Zeitplan zu kopieren, müssen in diesem Einträge vorhanden sein.  Vergewissern Sie sich, dass Sie Ihren Zeitplan gespeichert haben",
				"title": "Zeitplan duplizieren"
			},
			"instructions": "Wählen Sie die Art Zeitplan aus, den Sie für diese Einzelregelung erstellen möchten",
			"selectionTitle": "Eine Zeitplankonfigurierung auswählen",
			"subtitle": "Einen eigenen Zeitplan erstellen",
			"title": "Thermostatzeitplan"
		},
		"waterHeater": {
			"title": "Wasserheizerzeitplan"
		}
	},
	"settings": {
		"about": {
			"buildDateTitle": "Herstellungsdatum",
			"companyName": "Salus Controls Inc.",
			"companyTitle": "Unternehmen",
			"copyrightFormatted": "© __currentYear__ Salus Controls Inc.",
			"releasedTitle": "Veröffentlicht",
			"versionTitle": "Version"
		},
		"dataCollection": {
			"options": {
				"off": "Sie haben das Recht, die Datenerhebung jederzeit auszuschalten. Dies bedeutet jedoch, dass die Anwendung automatisch deaktiviert wird und Ihr mobiles Endgerät oder Computer nicht zur Verwaltung Ihrer Anlage oder Ihres Dienstes verwendet werden können. Sie können Ihre Anlagen jederzeit manuell bedienen. Konsultieren Sie dazu den Benutzerleitfaden für Ihre Anlagen.",
				"on": "Wir empfehlen, dass Sie sie auf EIN belassen. Die von Ihrem mobilen Endgerät und Ihren Anlagen gesammelten Daten dienen zum Betrieb der App, Ihrer verbundenen Heimdienste und dazu, Ihnen wichtige Meldungen und Benachrichtigungen zu schicken.",
				"optionPrefix": "Datenerhebung ist",
				"referUserGuide": "Sie können Ihre Anlagen jederzeit verwalten. Eine Anleitung dazu finden Sie im Bedienungsleitfagen für Anlagen."
			},
			"subheader": "Sie haben sich entschieden, die Datenerhebung auszuschalten. Dadurch haben Sie die Anwendung deaktiviert. Zur Weiternutzung der Anwendung schalten Sie die Datenerhebung bitte wieder EIN",
			"title": "Datenerhebung"
		},
		"manageDevices": {
			"devices": {
				"addShare": "Ein mobiles Endgerät verbinden",
				"deleteShareModal": "Sie löschen gerade",
				"deleteUser": "Nutzer löschen",
				"description": "Sie können Ihre SalusConnect-Gerät mit so vielen Menschen teilen, wie Sie möchten. Sie bestimmen, was Ihre Gäste sehen und auf was sie zugreifen können.",
				"empty": "Sie haben Ihr Konto mit keinen Gästen geteilt.",
				"formHeader": "Ein mobiles Endgerät verbinden",
				"formLabels": {
					"countrySelect": "Land",
					"deselectAll": "Auswahl für alle aufheben",
					"deviceListHeader": "Der folgenden Person Gastzugang gewähren:",
					"email": "E-Mail-Adresse",
					"emptyDevices": "Keine Geräte verfügbar",
					"firstName": "Vorname",
					"lastName": "Familienname",
					"name": "Name oder Alias für dieses Gerät",
					"selectAll": "Alle auswählen"
				},
				"header": "Konto teilen"
			},
			"gateway": {
				"addGateway": "Gateway hinzufügen",
				"description": "",
				"empty": "Sie haben keine verbundenen Gateways.",
				"header": "Gateways"
			},
			"title": "Konto verwalten"
		},
		"profile": {
			"changePassword": {
				"formFields": {
					"confirmPassword": "Passwort bestätigen",
					"newPassword": "Neues Passwort",
					"oldPassword": "Altes Passwort"
				},
				"passwordRequirements": "Passwörter müssen zwischen 6 und 14 Zeichen lang sein und sowohl eine Ziffer (0 - 9) oder ein Symbol als auch einen Kleinbuchstaben (a - z) und einen Großbuchstaben (A - Z) enthalten.",
				"title": "Passwort ändern"
			},
			"deleteProfile": "Nutzerprofil löschen",
			"deleteProfileErrorMsg": "Fehler beim Löschen des Nutzerprofils. Bitte versuchen Sie es später erneut.",
			"deleteProfileWarningLine1": "Ihr Nutzerprofil löschen?",
			"deleteProfileWarningLine2": "Diese Aktion kann nicht rückgängig gemacht werden.",
			"formFields": {
				"email": "E-Mail-Adresse",
				"emailConfirm": "E-Mail-Adresse bestätigen",
				"firstName": "Vorname",
				"languageSelect": "Sprache",
				"lastName": "Familienname",
				"submitButton": "Absenden"
			},
			"title": "Profil bearbeiten"
		}
	},
	"setupWizard": {
		"headline": "Willkommen bei Salus!",
		"landing": {
			"createProfile": {
				"active": "Ihr Profil wurde erstellt."
			},
			"equipmentConnect": {
				"button": "Anlagen verbinden",
				"inactive": "Verbinden Sie Ihre Anlagen nun mit dem Gateway."
			},
			"equipmentShare": {
				"button": "Anlagen teilen",
				"inactive": "Teilen Sie Ihre Anlagen, indem Sie Familie und Freunden Zugriff gewähren."
			},
			"gatewayConnect": {
				"active": "Ihr Gateway ist nun aktiviert und bereit, mit Ihren Anlagen verbunden zu werden.",
				"button": "Gateway aktivieren",
				"inactive": "Aktivieren Sie das Gateway, damit Sie Ihre Geräte verwenden können."
			},
			"header": {
				"connect": "Anlage mit dem Gateway verbinden",
				"gateway": "Gateway aktivieren"
			},
			"subHeaderHtml": {
				"connect": "Geschafft! Ihr Profil wurde erstellt und Ihr Gateway ist aktiviert.<br/>Verbinden wir nun Endgeräte und schließen wir Ihre Anlage an das Gateway an.",
				"gateway": "Einrichtung erfolgreich! Ihr Profil ist erstellt und Ihr Gateway ist aktiviert."
			}
		},
		"newUserForm": {
			"cookieModal": {
				"information": "Cookies helfen der Salus-Website, richtig zu funktionieren. Wir nutzen Cookies ausschließlich dazu, Login-Daten zu speichern, sicheren Login zu gewährleisten und Statistiken zur Funktionsoptimierung zu erheben. Sie müssen auf Akzeptieren klicken, um fortzufahren. Weitere Informationen hierzu finden Sie auch in unserer __privacy_policy__."
			},
			"equipment": "Haben Sie das Gateway?",
			"formFields": {
				"countrySelect": "Land",
				"email": "E-Mail-Adresse",
				"emailConfirm": "E-Mail-Adresse bestätigen",
				"firstName": "Vorname",
				"languageSelect": "Sprache",
				"lastName": "Familienname",
				"password": "Passwort",
				"passwordConfirm": "Passwort bestätigen",
				"phone": "Telefonnummer",
				"phoneType": "Art des Telefons",
				"privacyPolicyLabel": "Ich akzeptiere die Salus-Controls",
				"privacyPolicyLinkLabel": "Datenschutzrichtlinie",
				"submitButton": "Mein Profil erstellen",
				"termsAndConditionsLabel": "Ich akzeptiere die Salus-Controls",
				"termsAndConditionsLinkLabel": "Geschäftsbedingungen"
			},
			"header": "Die Einrichtung geht ganz leicht.",
			"passwordRequirements": "Passwörter müssen zwischen 6 und 14 Zeichen lang sein und sowohl eine Ziffer (0 - 9) oder ein Symbol als auch einen Kleinbuchstaben (a - z) und einen Großbuchstaben (A - Z) enthalten.",
			"phoneTypes": {
				"phone": "Telefon",
				"tablet": "Tablet"
			},
			"subheader": "Ihr Profil erstellen",
			"tooltip": {
				"equipment": "Sendet ein Signal an Ihre Anlagen, damit Sie remote darauf zugreifen können."
			}
		},
		"pairing": {
			"buttonText": "Nach Anlagen scannen",
			"header": "Willkommen! Schließen wir nun Ihre Anlagen an",
			"noCoordinator": "Kein Koordinator",
			"paragraphHtml": "Vergewissern Sie sich, dass all Ihre Anlagen angeschaltet sind, damit Sie sie anschließen können.<ol><li>Finden Sie auf jeder Anlage den Knopf. Drücken Sie ihn jedoch noch nicht. Falls Sie den Knopf auf einer Anlage nicht finden können, sehen Sie in der Bedienungsanleitung nach.</li><li>Als Nächstes klicken Sie auf die orangefarbene Schaltfläche “Nach Anlagen scannen” unten. Bitte beachten Sie: Wenn Sie “Nach Anlagen scannen”, haben Sie nur zwei Minuten Zeit, den Knopf auf Ihrer Anlage aus Schritt 1 zu drücken. Halten Sie den Knopf 3-5 Sekunden gedrückt.</li><li>Wiederholen Sie diesen Vorgang, bis alle Ihre Anlagen unten erscheinen. Wenn Sie den Vorgang einige Male wiederholt haben und nicht alle Ihrer Anlagen sehen, wenden Sie sich an den Kundendienst.</li></ol>",
			"requiresCoordinator": "Zur Bereitstellung des Geräts muss ein Koordinator-Gerät beim Gateway registriert werden. Bitte versuchen Sie, das Gateway erneut zu registrieren."
		},
		"provisioning": {
			"customize": {
				"access": "Zugriff",
				"accessInfo": "Möchten Sie, dass eine weitere Person Zugriff auf diese Anlage hat? Dann wählen Sie unten aus.",
				"clampsError": "Sie müssen drei Strommesser auswählen.",
				"clampsReading": "Wählen Sie die von Ihnen verwendeten Strommesser aus",
				"completeSetup": "Einrichtung abschließen",
				"continueSetupEquipment": "Anlagen weiter einrichten",
				"energyMonitor": "Einrichten des Energiemonitors für das ganze Haus",
				"noShares": "Derzeit sind keine geteilten Nutzer vorhanden. Sie können nach Abschluss des Einrichtungsvorgangs Ihre Anlagen jederzeit teilen.",
				"oneTouch": "OneTouch",
				"oneTouchInfo": "Die OneTouch-Funktion gestattet es Ihnen, Meldungen für ein oder mehrere Geräte mit einer einzigen Berührung automatisch zu regeln oder zu erstellen. Wir haben Optionen vorausgewählt, die Ihren Bedürfnissen vielleicht entsprechen. Wenn das nicht der Fall ist, deaktivieren Sie einfach die OneTouch-Funktion oder wählen Sie eine andere aus. Sie können jegliche OneTouch-Funktion jederzeit später ändern.",
				"oneTouchPreselected": "We’ve pre-selected options that might fit your needs. If you don’t like them, simply uncheck the OneTouch or choose a different one. You can always make changes to any OneTouch later.",
				"phasesReading": "Wie viele Phasen?",
				"pin": "Möchten Sie diese Anlage an Ihr Dashboard heften?",
				"pinHeader": "Anheften",
				"pinInfo": "Die Anheften-Funktion legt die wichtigsten Funktionen auf Ihrem Dashboard ab, damit Sie schnell und bequem darauf zugreifen können.",
				"selectAnother": "Wählen Sie die nächste Anlage aus.",
				"selectPhases": "Phasen auswählen",
				"selectVoltage": "Voltzahl auswählen",
				"selectWhich": "Wählen Sie die Anlage aus, mit der Sie beginnen möchten.",
				"setupEquipment": "Richten wir nun Ihre Anlage ein",
				"success": {
					"mobile": {
						"description": "Möchten Sie Ihre Anlagen bequem über eine App bedienen? Laden Sie jetzt unsere App für Ihre Endgeräte herunter. Erhältlich auf iTunes oder GooglePlay.",
						"link": "App herunterladen",
						"title": "Die mobile App"
					},
					"myDashboard": {
						"description": "Besuchen Sie Ihr neues Dashboard. Sehen und verwalten Sie Ihre Heimanlagen mühelos mit einem Blick auf den Bildschirm. Sie können später vom Dashboard aus weitere Anlagen hinzufügen.",
						"link": "Zum Dashboard",
						"title": "Mein Dashboard"
					},
					"title": "Erfolgreich eingerichtet!\nSie sind mit der Einrichtung fertig."
				},
				"successfullySetup": "Erfolgreich eingerichtet! Sie sind mit der Einrichtung fertig.",
				"voltageReading": "Was ist Ihre Stromspannung?"
			},
			"naming": {
				"nowConnected": "Equipment below is now connected to your gateway. Please name your equipment.",
				"success": "Erfolgreich eingerichtet!",
				"textbox": "Benennen Sie diese Anlage (z.B. Thermostat im Schlafzimmer)"
			},
			"select": {
				"connect": "Anlage verbinden",
				"currentlyScanning": "Es wird nach Geräten gesucht...",
				"letsConnect": "Verbinden wir nun Ihre Anlagen",
				"notFound": "Leider wurden keine Geräte gefunden",
				"select": "Klicken Sie das Kästchen neben jeder Anlage, die Sie nun verbinden möchten. Klicken Sie auf \"Anlage verbinden\".",
				"selectError": "Bitte wählen Sie mindestens eine Anlage aus, bevor Sie fortfahren"
			}
		},
		"subheader": "Als neuer Nutzer vollziehen Sie bitte ein paar einfache Schritte zur Konto- und Geräteverwaltung.<br/>Beginnen wir nun an, Ihr neues System einzurichten."
	}
}							
