<svg xmlns="http://www.w3.org/2000/svg" width="125px" height="125px" viewBox="0 0 125 125">
<path fill="#90A4AE" d="M87.816,37.163c-7.926-4.645-13.782-1.969-18.428,3.13c-4.645,5.099-5.25,10.551-5.25,11.51
	c0,0.959-0.164,3.307-2.07,3.281l-0.082-0.003c-0.81-0.049-1.954-0.583-2.312-2.794c-0.58-3.588-0.404-5.553,0.354-8.027
	c0.757-2.473,3.13-4.292,2.171-8.885c-0.959-4.594-5.25-6.765-7.573-6.866c-2.322-0.101-12.773,0.656-17.417,8.583
	c-4.645,7.926-1.969,13.782,3.13,18.427c5.1,4.645,10.552,5.251,11.511,5.251c0.96,0,3.32,0.252,3.294,2.158l0.002,0.069
	c0.036,0.783-0.235,2.014-2.766,2.36c-3.602,0.494-5.554,0.404-8.027-0.353c-2.474-0.758-4.292-3.131-8.886-2.172
	c-4.594,0.96-6.765,5.251-6.866,7.573s0.656,12.772,8.583,17.418c7.927,4.644,13.783,1.969,18.427-3.131
	c4.645-5.099,5.251-10.552,5.251-11.511s0.158-3.289,2.064-3.264l0.145,0.004c0.799,0.092,1.854,0.683,2.194,2.791
	c0.58,3.589,0.403,5.553-0.354,8.027c-0.758,2.474-3.13,4.291-2.17,8.886c0.958,4.594,5.25,6.766,7.573,6.866
	s12.773-0.657,17.418-8.583c4.645-7.927,1.969-13.783-3.13-18.428c-5.1-4.645-10.552-5.25-11.512-5.25
	c-0.959,0-3.307-0.164-3.281-2.07l0.006-0.081c-0.006-0.812,0.462-2.073,2.806-2.453c3.589-0.58,5.554-0.404,8.027,0.354
	c2.475,0.758,4.291,3.13,8.886,2.171c4.594-0.959,6.765-5.25,6.866-7.573C96.5,52.257,95.743,41.807,87.816,37.163z M62.767,66.32
	c-2.05,0-3.712-1.662-3.712-3.713s1.663-3.713,3.712-3.713c2.05,0,3.713,1.662,3.713,3.713S64.817,66.32,62.767,66.32z"/>
</svg>