<?xml version="1.0" encoding="utf-8"?>
<!-- Generator: Adobe Illustrator 16.0.0, SVG Export Plug-In . SVG Version: 6.00 Build 0)  -->
<!DOCTYPE svg PUBLIC "-//W3C//DTD SVG 1.1//EN" "http://www.w3.org/Graphics/SVG/1.1/DTD/svg11.dtd">
<svg version="1.1" id="Layer_1" xmlns="http://www.w3.org/2000/svg" xmlns:xlink="http://www.w3.org/1999/xlink" x="0px" y="0px"
	 width="100px" height="100px" viewBox="0 0 100 100" enable-background="new 0 0 100 100" xml:space="preserve">
<path fill="#FFF" d="M50,0C22.389,0,0,22.389,0,50c0,27.617,22.388,50,50,50c27.613,0,50-22.383,50-50C100,22.388,77.613,0,50,0z M50,87.683
	c-20.812,0-37.681-16.869-37.681-37.683c0-20.812,16.869-37.683,37.681-37.683c20.814,0,37.684,16.87,37.684,37.683
	C87.684,70.813,70.811,87.683,50,87.683z"/>
<circle fill="#FFF" cx="50" cy="50" r="32.611"/>
</svg>
