<svg xmlns="http://www.w3.org/2000/svg" width="125px" height="125px" viewBox="0 0 125 125">
<g>
	<path fill="#90A4AE" d="M19.941,0v125h85.117V0H19.941z M98.223,118.519H26.777V6.481h71.445V118.519z"/>
	<circle fill="#90A4AE" cx="91.998" cy="62.5" r="4.35"/>
</g>
</svg>