<svg xmlns="http://www.w3.org/2000/svg" width="125px" height="125px" viewBox="0 0 125 125">
<path fill="#00acd0" d="M74.314,125.346l-9.73-27.06H27.327l-9.531,27.06H1l36.458-97.842h17.329l36.458,97.842H74.314z
	 M60.385,84.557L51.253,58.03c-0.666-1.776-1.589-4.576-2.766-8.397c-1.177-3.821-1.989-6.62-2.432-8.398
	c-1.2,5.465-2.956,11.441-5.266,17.929l-8.798,25.393H60.385L60.385,84.557z"/>
<path fill="#00acd0" d="M92.722,43.299V38.77H78.058l-3.861-5.785l-3.775,2.511l3.697,5.538l-3.697,5.538l3.775,2.512l3.861-5.785
	H92.722z M124.095,35.498l-3.774-2.512l-3.862,5.785h-14.663V43.3h14.663l3.861,5.784l3.774-2.512l-3.695-5.538L124.095,35.498z
	 M99.527,45.564H94.99v14.641l-5.795,3.856l2.519,3.768l5.544-3.689l5.548,3.689l2.516-3.768l-5.794-3.856V45.564L99.527,45.564z
	 M94.99,36.506h4.537V21.867l5.793-3.858l-2.516-3.768l-5.548,3.691l-5.544-3.691l-2.519,3.768l5.795,3.858L94.99,36.506
	L94.99,36.506z M82.081,29.079l9.037,9.027l3.208-3.203l-9.039-9.026l1.365-6.815l-4.448-0.89l-1.307,6.526l-6.538,1.308
	l0.892,4.441L82.081,29.079z M112.434,52.985l-9.036-9.021l-3.208,3.201l9.038,9.023l-1.364,6.821l4.448,0.888l1.31-6.526
	l6.537-1.307l-0.891-4.441L112.434,52.985z M94.326,47.165l-3.209-3.201l-9.039,9.021l-6.827-1.362l-0.892,4.441l6.538,1.306
	l1.308,6.528l4.449-0.889l-1.369-6.82L94.326,47.165z M100.191,34.904l3.207,3.203l9.035-9.022l6.832,1.362l0.892-4.441
	l-6.537-1.308l-1.309-6.526l-4.449,0.89l1.363,6.82L100.191,34.904z"/>
</svg>
