<svg xmlns="http://www.w3.org/2000/svg" width="125px" height="125px" viewBox="0 0 125 125">
<g>
	<g>
		<path fill="#FFFFFF" d="M19.941,0v125h85.117V0H19.941z M98.223,118.519H26.777V6.481h71.445V118.519z"/>
		<circle fill="#FFFFFF" cx="91.998" cy="62.5" r="4.35"/>
	</g>
	<g>
		<path fill="#FFFFFF" d="M85.826,65.976c2.443,0,4.425-2.02,4.425-4.511c0-2.18-1.517-3.999-3.533-4.419L74.27,54.623
			c0,0-8.215-16.687-9.182-18.473c-0.966-1.786-4.469-3.879-7.248-4.187c-2.778-0.308-5.496,0-8.153,1.601
			c-2.658,1.601-12.865,7.635-13.711,8.128s-1.511,1.478-2.235,2.894c-0.725,1.416-7.391,13.561-7.391,13.561
			c-0.362,0.653-0.568,1.409-0.568,2.212c0,2.491,1.981,4.51,4.425,4.51c1.778,0,3.313-1.069,4.016-2.613l7.189-13.341l4.53-2.914
			c0,0-3.141,11.576-4.953,22.66c-1.812,11.083-3.442,20.751-3.442,20.751l-13.745,15.894c-0.94,0.958-1.522,2.282-1.522,3.745
			c0,2.925,2.326,5.296,5.195,5.296c1.435,0,2.733-0.593,3.674-1.551c0,0,16.243-19.566,17.149-20.675s1.269-2.155,1.39-3.202
			c0.12-1.047,2.295-15.271,2.295-15.271l12.744,14.039l-0.362,22.396c0,2.926,2.326,5.297,5.195,5.297s5.195-2.371,5.195-5.297
			c0,0,0.24-26.028,0.24-27.075s-0.665-2.647-1.147-3.078C73.363,79.499,60.8,66.076,60.8,66.076l2.778-13.424
			c0,0,3.383,6.835,3.745,7.635c0.362,0.801,1.57,2.278,3.201,2.586C72.155,63.182,85.826,65.976,85.826,65.976z"/>
		<ellipse fill="#FFFFFF" cx="59.938" cy="22.149" rx="8.432" ry="8.596"/>
	</g>
</g>
</svg>