<svg xmlns="http://www.w3.org/2000/svg" width="125px" height="125px" viewBox="0 0 125 125">
<g>
	<path fill="#90A4AE" d="M9.524,120.543c0,1.908,1.549,3.457,3.459,3.457h99.036c1.915,0,3.456-1.549,3.456-3.457V42.545H9.524
		V120.543L9.524,120.543z M88.827,48.952h20.291v20.296H88.827V48.952z M88.827,72.771h20.291v20.293H88.827V72.771z M88.827,96.588
		h20.291v20.294H88.827V96.588z M64.841,48.952h20.295v20.296H64.841V48.952z M64.841,72.771h20.295v20.293H64.841V72.771z
		 M64.841,96.588h20.295v20.294H64.841V96.588z M40.849,48.952h20.292v20.296H40.849V48.952z M40.849,72.771h20.292v20.293H40.849
		V72.771z M40.849,96.588h20.292v20.294H40.849V96.588z M16.861,48.952h20.296v20.296H16.861V48.952z M16.861,72.771h20.296v20.293
		H16.861V72.771z M16.861,96.588h20.296v20.294H16.861V96.588z M112.02,18.05H91.44V4.443c0-1.9-1.545-3.443-3.448-3.443h-0.081
		c-1.9,0-3.446,1.543-3.446,3.443v13.609H42.101V4.443c0-1.9-1.548-3.443-3.449-3.443h-0.084c-1.9,0-3.445,1.543-3.445,3.443v13.609
		H12.983c-1.91,0-3.459,1.547-3.459,3.454v14.205h105.951V21.506C115.476,19.599,113.935,18.05,112.02,18.05L112.02,18.05z
		 M38.629,33.786c-3.891,0-7.047-3.155-7.047-7.049c0-2.608,1.435-4.86,3.54-6.078v4.237c0,1.903,1.545,3.445,3.445,3.445h0.084
		c1.901,0,3.449-1.542,3.449-3.445v-4.257c2.128,1.21,3.579,3.477,3.579,6.101C45.677,30.633,42.518,33.786,38.629,33.786z
		 M87.545,33.786c-3.893,0-7.05-3.155-7.05-7.049c0-2.782,1.63-5.166,3.97-6.309v4.467c0,1.903,1.546,3.445,3.446,3.445h0.081
		c1.903,0,3.448-1.542,3.448-3.445V20.87c1.9,1.264,3.156,3.419,3.156,5.869C94.593,30.633,91.437,33.786,87.545,33.786z"/>
</g>
</svg>
